{
			"title":"Locust induced single user",
			"description":"WRONG Eight locust users are used with min_wait=1000, max_wait=2000. No downloads. This approximates one web application user",
			"perfMonFile":"../results/P04_PerfMon.csv",
			"locustFile":"../results/P04_LocustCustomOut.pkl",
			"outFile":"../results/P04_Locust_U8_Min1000_Max2000.html",
			"pheight":400,
			"pwidth":400
}