Method,Name,# requests,# failures,Median response time,Average response time,Min response time,Max response time,Average Content Size,Requests/s
POST,/arcgis/rest/services/Public/LDQ_Status_newViewer/MapServer/0/,8,0,210,217,162,272,3461,0.08
GET,LDQ_Status_newViewer/MapServer/0/query,209,0,24000,23625,2865,45824,3646991,2.13
None,Total,217,0,24000,22762,162,45824,3512667,2.22
