"(PDH-CSV 4.0) (Pacific Daylight Time)(420)","\\GEOWEB3\Memory\% Committed Bytes In Use","\\GEOWEB3\PhysicalDisk(0 C:)\Disk Bytes/sec","\\GEOWEB3\PhysicalDisk(1 G:)\Disk Bytes/sec","\\GEOWEB3\PhysicalDisk(_Total)\Disk Bytes/sec","\\GEOWEB3\Processor(_Total)\% C1 Time","\\GEOWEB3\Processor(_Total)\% C2 Time","\\GEOWEB3\Processor(_Total)\% C3 Time","\\GEOWEB3\Server\Bytes Received/sec","\\GEOWEB3\Server\Bytes Transmitted/sec","\\GEOWEB3\Web Service(_Total)\Current Connections","\\GEOWEB3\Web Service(_Total)\Current NonAnonymous Users","\\GEOWEB3\Web Service(_Total)\Current Anonymous Users","\\GEOWEB3\Web Service(_Total)\Current blocked bandwidth bytes.","\\GEOWEB3\Web Service(_Total)\Bytes Sent/sec","\\GEOWEB3\Web Service(_Total)\Bytes Received/sec"
"06/06/2017 14:44:20.757","28.881458758025751"," "," "," "," "," "," "," "," ","34","0","18","0"," "," "
"06/06/2017 14:44:21.758","28.881536664378732","13309.694948936118","12449683.890697168","12462993.585646104","0.27923892783439247","97.659886886008991","0","0","0","34","0","17","0","66604.465047951351","0"
"06/06/2017 14:44:22.758","28.88230274351637","28670.393937722427","13135136.194039404","13163806.587977126","0","98.487623923248819","0","0","0","34","0","17","0","0","0"
"06/06/2017 14:44:23.759","28.882069024457429","12279.871279394345","12455882.76773233","12468162.639011726","0","98.672349104827134","0","0","0","34","0","17","0","0","0"
"06/06/2017 14:44:24.759","28.881988521226017","134134.65055109889","13110382.180582214","13244516.831133313","0.073451516349861593","98.276259092074866","0","0","0","35","0","17","0","7350.4876565565955","220.98459693905693"
"06/06/2017 14:44:25.759","28.88189503360244","98296.265855735983","13237230.468572445","13335526.734428182","0.25827972961568901","96.643743353278992","0","0","0","35","0","17","0","164.9870184956506","404.96813630750603"
"06/06/2017 14:44:26.759","28.881110776315772","161782.10709244694","14740602.618372571","14902384.725465016","0.047874451351088407","98.357680344848035","0","0","0","34","0","17","0","0","0"
"06/06/2017 14:44:27.759","28.881045854354959","139255.84185507544","15379579.004876714","15518834.846731789","0.098568664603570597","98.549516805567364","0","0","0","34","0","18","0","0","702.95881795810863"
"06/06/2017 14:44:28.759","28.880921204190184","16383.047223543013","16198737.942278154","16215120.989501696","0.049524279945666279","98.433250959514169","0","0","0","34","0","18","0","0","0"
"06/06/2017 14:44:29.760","28.87902288605591","92624.945427564715","10873452.157154117","10966077.102581682","0.14383850110527374","98.35530188595142","0","0","0","35","0","18","0","10733.547230518576","406.79334414946089"
"06/06/2017 14:44:30.760","28.879565633648337","20478.896596076203","13733148.057328703","13753626.953924779","0.099667302385676074","96.85065122703368","0","0","0","35","0","18","0","14049.243026116732","2301.8759748128623"
"06/06/2017 14:44:31.760","28.881069226260852","14335.239876646887","14818542.249630982","14832877.48950763","0.55617171320445613","97.080375976597651","0","0","0","35","0","18","0","0","0"
"06/06/2017 14:44:32.760","28.881004304300035","12287.11203888319","13446196.27455117","13458483.386590052","0.22515428738038115","97.189220990962838","0","0","0","35","0","18","0","899.93496378538987","4451.6782875250619"
"06/06/2017 14:44:33.760","28.880796554025416","8191.8493712613381","10427200.268444275","10435392.117815537","0.38798604118153412","96.224827727018521","0","0","0","35","0","18","0","2699.9503542975604","13355.754419258597"
"06/06/2017 14:44:34.761","28.879633152487582","65531.516392096768","12663965.542772701","12729497.059164798","0.56739446593918397","94.900698969269044","0","0","0","36","0","18","0","368532.78531552735","19245.683227519021"
"06/06/2017 14:44:35.761","28.879866871546522","476138.41776011128","16829701.149043418","17305839.56680353","0.19875722242231039","96.602509352428214","0","0","0","36","0","18","0","2699.8776208675663","13355.394631224895"
"06/06/2017 14:44:36.761","28.879685090056238","16382.381746900815","12778257.762582636","12794640.144329537","0.25596979556412341","96.484604816631631","0","0","0","36","0","18","0","3599.6444268092609","17798.241888112458"
"06/06/2017 14:44:37.761","28.880383650354624","16383.453541126637","13770292.701316938","13786676.154858066","0.13202497555778153","97.624430339827327","0","0","0","36","0","18","0","7911.7361094600801","4677.8439737176759"
"06/06/2017 14:44:38.761","28.88020186886434","8702.2621732838252","13759812.189286424","13768514.451459708","1.0368559702872795","97.493524086598782","0","0","0","36","0","18","0","1574.6855380195339","7787.4448607200948"
"06/06/2017 14:44:39.761","28.880409619138952","96761.834791208879","14679128.714992279","14775890.549783489","2.93152287486939","94.865470470895858","0","0","0","36","0","18","0","4777.6955877190394","17779.867150529979"
"06/06/2017 14:44:40.761","28.879664315028776","92665.263670640677","15727496.68487338","15820161.94854402","0.051504051282076919","97.486160348479757","0","0","0","36","0","18","0","2249.8364474592272","16685.787021667613"
"06/06/2017 14:44:41.761","28.879599393067963","8191.6181844382008","16317703.423400896","16325895.041585334","0.24195217549981751","96.346110197327306","0","0","0","36","0","18","0","1349.9370787343225","1112.9481249120749"
"06/06/2017 14:44:42.762","28.896318096417474","42494.273719192875","17259842.838812411","17302337.112531606","0.31302372055078814","96.6919134072361","0","0","0","41","0","18","0","37887.46086564615","16057.347688789514"
"06/06/2017 14:44:43.762","28.882435184316435","292844.71518231207","15846380.462103013","16139225.177285325","0.26738911655703768","94.183701782444132","0","0","0","42","0","19","0","55155.367831966891","14779.02675096486"
"06/06/2017 14:44:44.762","28.897078981798245","152059.96852462381","16449611.881237838","16601671.849762464","0.47793584986820992","93.644910031693414","0","0","0","44","0","19","0","82711.807111122514","7716.7954091995598"
"06/06/2017 14:44:45.762","28.89534167012679","51707.732532439746","15973081.732793268","16024789.465325708","0.17309993771721857","96.38665878624667","0","0","0","43","0","18","0","1255384.3924367209","6165.4911586290118"
"06/06/2017 14:44:46.762","28.880134350025088","38396.847506328246","17107587.416952863","17145984.264459193","0.48318356415970615","94.375076991007447","0","0","0","45","0","19","0","61675.936224943558","19156.427201204078"
"06/06/2017 14:44:47.762","28.880100590605469","57342.651354260248","16121476.837883452","16178819.489237713","0.22640434838732773","96.909700130975168","0","0","0","44","0","18","0","15951.624832644382","3547.9165563078154"
"06/06/2017 14:44:48.762","28.879983731075999","131061.46364757413","16186090.760475405","16317152.224122979","0","98.512574326288956","0","0","0","44","0","18","0","7215.41993469921","19259.451685454751"
"06/06/2017 14:44:49.762","28.878495719734076","204796.14670833314","13262598.460831653","13467394.607539987","0.48777454003479809","94.823418577307763","0","0","0","45","0","19","0","0","448.99155210957804"
"06/06/2017 14:44:50.762","28.881157520127559","151029.40837014877","13499469.28781045","13650498.696180599","0.67644187096390374","94.733198315594549","0","0","0","45","0","20","0","36738.423549573861","14530.980948324961"
"06/06/2017 14:44:51.763","28.881684686449393","225726.17002150297","14606172.307785962","14831898.477807464","0.49771271473101281","95.254650293565433","0","0","0","45","0","19","0","94821.346639249998","18387.637494709754"
"06/06/2017 14:44:52.764","28.880825119688179","16361.722855756814","14516938.603770234","14533300.32662599","0.13970406232563212","96.984425983716974","0","0","0","45","0","19","0","2921.0229097344168","14212.6489064411"
"06/06/2017 14:44:53.765","28.882069024457429","135063.98147610872","14476403.105484743","14611467.086960852","0.049514291470666355","98.156604004834165","0","0","0","45","0","19","0","1984.4716738544028","5702.608178593694"
"06/06/2017 14:44:54.765","28.880144737538821","548819.40969026613","13437884.202938532","13986703.612628799","0.13250571588382773","97.139628348064079","0","0","0","46","0","20","0","3560.7107004777831","19739.396219638278"
"06/06/2017 14:44:55.765","28.880858879107802","339951.57320170134","14167379.418128734","14507330.991330435","0.37618673852506962","97.528064272608646","0","0","0","46","0","20","0","3107.8498256038447","5939.7129871579264"
"06/06/2017 14:44:56.765","28.880757600848927","294902.28984202124","14698012.043029072","14992914.332871094","0.32335323473721034","97.118097672294653","0","0","0","45","0","20","0","1986.9345768096796","5939.8044218668829"
"06/06/2017 14:44:57.766","28.879929196628911","401382.08254488965","15473688.855659114","15875070.938204003","0.19814685644716695","96.720233076776623","0","0","0","45","0","20","0","863.94421466135373","1489.9037961173808"
"06/06/2017 14:44:58.766","28.880653725711625","475048.24358176277","10893347.654547319","11368395.898129081","0.38493418988013883","96.629918813207397","0","0","0","45","0","20","0","2922.4601292882303","13353.533180558879"
"06/06/2017 14:44:59.766","28.883577810826804","499680.37639074423","13159615.15855296","13659295.534943705","0.45640673733375314","95.864932562369972","0","0","0","45","0","20","0","19221.783498013407","15153.040999266253"
"06/06/2017 14:45:00.766","28.88018369071531","877491.07739275927","14048048.520220138","14925539.597612897","0.15074252894089574","97.372094574238844","0","0","0","44","0","20","0","8424.2615125369175","6796.4042137345314"
"06/06/2017 14:45:01.766","28.879911018479881","758741.17227472144","14036199.715980947","14794940.888255669","1.5655591779149509","93.493301523674006","0","0","0","45","0","20","0","20910.819672804086","18470.957392694963"
"06/06/2017 14:45:02.766","28.8816613145435","475114.4641735304","14239098.57499378","14714213.039167309","0.24034236062852771","94.642206146293177","0","0","0","45","0","20","0","44351.989628133349","18395.166190177686"
"06/06/2017 14:45:03.766","28.884652918497935","484325.490305543","15699108.704787707","16183434.19509325","0.2893664624270047","95.384244966008438","0","0","0","45","0","23","0","367535.88281816564","10579.420932364572"
"06/06/2017 14:45:04.766","28.887566616099384","561643.58557486848","12795438.915849695","13357082.501424562","0.81265792585700036","94.806058473574936","0","0","0","46","0","21","0","1217527.7457262061","10461.619744694826"
"06/06/2017 14:45:05.767","28.892183865952671","664520.58842710312","16071363.876659185","16735884.465086287","0.55707448804020643","95.713424101325685","0","0","0","46","0","21","0","4911.5904431606477","19067.410048988269"
"06/06/2017 14:45:06.767","28.893931565137855","758762.90998561948","15937093.024313336","16695855.934298955","0.17711000428051674","92.991651242574719","0","0","0","46","0","22","0","1085.9698151837449","2083.9420762826194"
"06/06/2017 14:45:07.767","28.894972913389349","861135.0243374306","18082811.569321077","18943946.593658507","0.2876365191091757","93.657348284659676","0","0","0","45","0","22","0","40665.687204772301","684.96104394779741"
"06/06/2017 14:45:08.767","28.893580986549445","225265.55081118477","19012412.488463994","19237678.039275181","0.11998620158681751","93.784344800347966","0","0","0","45","0","22","0","1085.9303452634351","1489.9044331883226"
"06/06/2017 14:45:09.767","28.896141508684053","413661.86025951797","16251074.789873613","16664736.650133129","0.23603233701010243","94.572186139784421","0","0","0","44","0","21","0","5046113.5414784411","0"
"06/06/2017 14:45:10.767","28.896146702440916","593900.95273118187","15412753.690534052","16006654.643265232","0.088449978617422653","93.168034061740798","0","0","0","44","0","21","0","5193953.4223465892","21591.307535310611"
"06/06/2017 14:45:11.767","28.897377622818006","432094.92577907367","14986116.904508347","15418211.830287421","0.82092345940117439","91.134482584848016","0","0","0","46","0","20","0","27049.929493519285","10468.198723482677"
"06/06/2017 14:45:12.767","28.897172469421822","212980.25139043474","13148458.692810444","13361438.944200879","0.099508506767468349","94.569797188424744","0","0","0","44","0","20","0","4439.7550902077555","452.97501258200748"
"06/06/2017 14:45:13.768","28.898587768167626","208884.83459837778","15998120.861593405","16207005.696191782","1.3901401338846033","87.925548561915377","0","0","0","42","0","19","0","5627050.2205021437","852.95440751577939"
"06/06/2017 14:45:14.768","28.896502474786196","278508.94466641126","16706440.960210171","16984949.904876582","0.19137789585302897","93.490981791603062","0","0","0","43","0","20","0","49577.607944283292","23306.405396530023"
"06/06/2017 14:45:15.768","28.896372630864558","389094.70956265926","18090856.127771221","18479950.83733388","0.1894181411465117","93.177927267193354","0","0","0","42","0","20","0","15914.965556638786","1682.8906152188413"
"06/06/2017 14:45:16.768","28.896767356386327","855012.57850092556","18057660.864507571","18912673.443008497","0.19124831244136917","93.130029054705204","0","0","0","43","0","20","0","1249.9599119645361","1902.9389699748099"
"06/06/2017 14:45:17.768","28.896006471005553","106487.57581114057","14371727.05851124","14478214.634322381","0.14912246319832789","93.553458113325874","0","0","0","42","0","18","0","11099305.938416556","1489.8821360295171"
"06/06/2017 14:45:18.754","28.906560184955914","87235.18902961821","12806956.560872044","12894191.749901664","0.54020243952054925","92.907568898374407","0","0","0","41","0","18","0","1102.4071158295549","1511.1192296099696"
"06/06/2017 14:45:19.754","28.901571581486763","102906.54340021516","14028056.165004455","14130962.70840467","0.27770795250228125","96.540759196388734","0","0","0","41","0","18","0","40602.847041800145","594.96845191161401"
"06/06/2017 14:45:20.754","28.901859834992788","155124.45784370988","12987449.658677334","13142574.116521044","0.10502791128741082","97.957545086560543","0","0","0","41","0","18","0","12708.054447295977","1792.866600362081"
"06/06/2017 14:45:21.755","28.901070383949257","135117.44351187034","11005929.944239622","11141047.387751492","0.2463389763857842","96.755720479031552","0","0","0","42","0","18","0","8677.7530711895306","4591.2820937649485"
"06/06/2017 14:45:22.755","28.900974299447245","12287.148815790035","8928661.472807426","8940948.6216232162","0.44239890292671197","96.238284478142774","0","0","0","42","0","18","0","14730.9795210139","8504.4108624913933"
"06/06/2017 14:45:23.755","28.902057197753667","148478.53967691961","10960788.197943086","11109266.737620005","0.23843320010830785","95.938666493886089","0","0","0","42","0","18","0","16446.83824128702","17699.825917843998"
"06/06/2017 14:45:24.755","28.902737579903025","111093.88124294225","13695776.548438668","13806870.42968161","0.094648784119081897","97.533092328559064","0","0","0","41","0","18","0","2474.7745902603151","13350.783971376053"
"06/06/2017 14:45:25.755","28.903345249456276","69629.201168893487","13704665.124183388","13774294.325352281","0.13357486596768586","98.067059002215046","0","0","0","41","0","18","0","0","0"
"06/06/2017 14:45:26.755","28.904817679527596","293350.66062692145","15354577.685030764","15647928.345657686","0.3909541801700841","96.406041211969963","0","0","0","41","0","18","0","0","0"
"06/06/2017 14:45:27.755","28.906253753300859","53244.903476514788","14900381.449812369","14953626.353288885","0.094449091129974488","97.523935985393678","0","0","0","40","0","18","0","0","0"
"06/06/2017 14:45:28.756","28.90703021995223","20469.111280928224","15196268.214961115","15216737.326242043","0.096990195845241822","97.53059263658028","0","0","0","40","0","18","0","0","0"
"06/06/2017 14:45:29.756","28.908567571984367","8191.3730005511597","15197556.720085073","15205748.093085624","0.095858765352700659","96.642083547808198","0","0","0","40","0","18","0","0","0"
"06/06/2017 14:45:30.760","28.907482076799511","76985.461769416128","14952514.058102226","15029499.519871641","0.047108521564122402","97.194986761121356","0","0","0","40","0","18","0","0","0"
