{
			"title":"Locust induced 32 user",
			"description":"32 locust users are used with min_wait=1000, max_wait=2000. No downloads. This approximates 8 web application users",
			"perfMonFile":"../results/P06_PerfMon.csv",
			"locustFile":"../results/P06_CustomOut.pkl",
			"outFile":"../results/P06_Locust_U32_Min1000_Max2000.html",
			"pheight":400,
			"pwidth":400
}