"(PDH-CSV 4.0) (Pacific Daylight Time)(420)","\\GEOWEB3\Memory\% Committed Bytes In Use","\\GEOWEB3\PhysicalDisk(0 C:)\Disk Bytes/sec","\\GEOWEB3\PhysicalDisk(1 G:)\Disk Bytes/sec","\\GEOWEB3\PhysicalDisk(_Total)\Disk Bytes/sec","\\GEOWEB3\Processor(_Total)\% C1 Time","\\GEOWEB3\Processor(_Total)\% C2 Time","\\GEOWEB3\Processor(_Total)\% C3 Time","\\GEOWEB3\Server\Bytes Received/sec","\\GEOWEB3\Server\Bytes Transmitted/sec","\\GEOWEB3\Web Service(_Total)\Current Connections","\\GEOWEB3\Web Service(_Total)\Current NonAnonymous Users","\\GEOWEB3\Web Service(_Total)\Current Anonymous Users","\\GEOWEB3\Web Service(_Total)\Current blocked bandwidth bytes.","\\GEOWEB3\Web Service(_Total)\Bytes Sent/sec","\\GEOWEB3\Web Service(_Total)\Bytes Received/sec"
"06/06/2017 15:38:57.296","29.20636980000738"," "," "," "," "," "," "," "," ","35","0","11","0"," "," "
"06/06/2017 15:38:58.297","29.205538798908925","126953.14490739217","10745969.426999904","10872922.571907297","0.099189156118038094","98.117293924039885","0","0","0","35","0","11","0","0","0"
"06/06/2017 15:38:59.297","29.206037399567997","20478.791516189143","11017589.835709758","11038068.627225948","0.19799723031851338","97.140018897826749","0","0","0","35","0","11","0","0","0"
"06/06/2017 15:39:00.297","29.205819261779652","24575.411500292488","13463229.600243567","13487805.01174386","0.099708613276363836","98.394703324880297","0","0","0","35","0","11","0","0","0"
"06/06/2017 15:39:01.298","29.206011430783676","12286.886128428128","12974951.751620105","12987238.637748532","0.46567565565098551","96.983831986807132","0","0","0","35","0","11","0","0","0"
"06/06/2017 15:39:02.298","29.205969880728748","279538.73148271284","13303176.554664487","13582715.2861472","0.047914446715625655","98.16736240269752","0","0","0","35","0","11","0","0","0"
"06/06/2017 15:39:03.298","29.20519081719895","77814.416812609459","12458497.681260947","12536312.098073557","0.099353388113507413","98.432902018782471","0","0","0","35","0","11","0","0","0"
"06/06/2017 15:39:04.299","29.204962291896873","146294.18420826655","12620175.2195327","12766469.403740967","0.14633524517547242","97.149529685235365","0","0","0","35","0","11","0","0","0"
"06/06/2017 15:39:05.284","29.204824657339945","8316.3435842648978","12129387.117650352","12137703.461234618","0","98.504639616726479","0","0","0","32","0","11","0","0","0"
"06/06/2017 15:39:06.284","29.204700007175177","81915.97168101331","12746125.193565672","12828041.165246684","0","98.536319055149136","0","0","0","27","0","11","0","0","0"
"06/06/2017 15:39:07.284","29.20310552381752","129016.9382209269","11210138.409862759","11339155.348083686","0.24115207458976251","91.218956844797376","0","0","0","27","0","11","0","0","0"
"06/06/2017 15:39:08.284","29.212373782943708","81404.310133180319","12852665.418763261","12934069.728896443","0.57528378483636533","87.825391297461664","0","0","0","31","0","15","0","5259.7615873197774","3310.8499269231529"
"06/06/2017 15:39:09.284","29.212742539681148","20478.467526659009","13433874.69748831","13454353.165014967","0.16573087465706457","96.519391662202182","0","0","0","31","0","14","0","11018.175472473418","0"
"06/06/2017 15:39:10.285","29.212565951947727","8188.6874468363412","11738483.455039894","11746672.142486731","0.099970744414227125","98.041564920963438","0","0","0","30","0","14","0","0","0"
"06/06/2017 15:39:11.285","29.212441301782953","49147.649586635504","10755143.98454207","10804291.634128705","0","98.649468282317315","0","0","0","30","0","13","0","1078661.5198797639","539.9522049312983"
"06/06/2017 15:39:12.285","29.206185421638658","139261.14156307085","10551079.431366779","10690340.57292985","1.8749268208204728","88.540362960731372","0","0","0","30","0","12","0","1206674.2321275852","0"
"06/06/2017 15:39:13.285","29.205476473826543","12286.901889353099","11074594.23627026","11086881.138159612","0.44904566547447761","96.53648908482073","0","0","0","30","0","14","0","2060369.8596772531","1621.8550508244407"
"06/06/2017 15:39:14.285","29.205398567473562","12287.274909713486","10841472.228670532","10853759.503580246","0.14806346131137152","96.129742307784213","0","0","0","30","0","13","0","91796.582947714633","540.96807667276983"
"06/06/2017 15:39:15.285","29.206647665999675","28670.553309906674","9207343.4058100283","9236013.9591199365","0.47704595069378636","94.829515815858073","0","0","0","30","0","11","0","1728248.7941347258","1076.945658299717"
"06/06/2017 15:39:16.286","29.206497047050583","12285.557102565077","10201107.58082987","10213393.137932435","0.28720839894614275","97.708011392759786","0","0","0","30","0","13","0","826.83558950368808","1617.6783359334549"
"06/06/2017 15:39:17.286","29.208943306534152","8191.8178450170617","10288923.21334143","10297115.031186447","0.29782610738897913","94.512374491782836","0","0","0","30","0","11","0","374946.6626072232","1080.9759631913385"
"06/06/2017 15:39:18.286","29.214687601627215","157173.98561323347","11205942.010105714","11363115.995718947","0.09883859402624938","91.340749277533376","0","0","0","30","0","13","0","26023.341915108413","1617.8969152217257"
"06/06/2017 15:39:19.286","29.218429703448688","16383.075244798305","10526125.844782911","10542508.920027709","0.37593672968241354","87.675798515590856","0","0","0","30","0","14","0","185274.54203689293","924.94779061513862"
"06/06/2017 15:39:20.286","29.230307825399709","143349.7017483247","11549890.255150734","11693239.956899058","0.28575690934989728","86.308455480855315","0","0","0","30","0","15","0","109119.16087255462","1292.9071174705905"
"06/06/2017 15:39:21.287","29.232052927706466","90018.998803901326","12709045.922041705","12799064.920845605","0.14500827227393287","90.46101882570369","0","0","0","30","0","15","0","90475.527151439746","536.44578255609702"
"06/06/2017 15:39:22.287","29.237727107081842","8191.5096011917894","12025136.094549546","12033327.604150739","0.13025495555263367","90.661238626938584","0","0","0","29","0","15","0","0","0"
"06/06/2017 15:39:23.288","29.209717176307088","435670.08227717935","11672476.939976133","12108147.022253312","0.52668806148396952","88.796727504845435","0","0","0","24","0","14","0","1922773.0016055563","0"
"06/06/2017 15:39:24.288","29.210143064370047","8191.5201091220852","12164407.362046296","12172598.882155418","0.28279747828999668","89.665328487223974","0","0","0","24","0","13","0","826.95155398485895","0"
"06/06/2017 15:39:25.288","29.211919329217988","20479.737273995343","12017509.832380468","12037989.569654463","0.42402212790175986","84.383253130721542","0","0","0","24","0","14","0","13980.8206458852","1080.9861324799301"
"06/06/2017 15:39:26.288","29.219034776123497","53242.171548975879","11979488.598519573","12032730.770068549","0.30046451514076189","90.749962429437076","0","0","0","24","0","14","0","0","0"
"06/06/2017 15:39:27.288","29.219026985488199","40958.196004414553","11337228.654021949","11378186.850026364","1.4069176417041473","93.33349931417915","0","0","0","24","0","15","0","0","538.97626089793562"
"06/06/2017 15:39:28.288","29.218907529080301","196593.70856091724","13037132.261728534","13233725.970289452","1.5259337546513378","97.100634876671748","0","0","0","24","0","15","0","0","0"
"06/06/2017 15:39:29.288","29.217549361660012","16383.14529835589","13520190.6574682","13536573.802766554","0.2497712763032251","97.21492028416732","0","0","0","25","0","14","0","1250920.7400029933","364.98095910033572"
"06/06/2017 15:39:30.288","29.217411727103084","40957.600545610425","13061378.813995164","13102336.414540775","0.15054261232827607","98.059124171158231","0","0","0","24","0","14","0","2038833.5572576663","539.96836656810615"
"06/06/2017 15:39:31.289","29.218660825629193","20477.723265212582","12098238.905087592","12118716.628352806","0.11190047336739739","95.011170550738896","0","0","0","24","0","14","0","221349.39014224464","930.8965019488727"
"06/06/2017 15:39:32.289","29.218655631872331","8191.5096011917894","10689920.029555285","10698111.539156476","0.14800284647009412","94.297480921961139","0","0","0","24","0","15","0","0","539.96767390668538"
"06/06/2017 15:39:33.289","29.219213960735352","12287.37473590499","9502236.4624331929","9514523.8371690977","0.14851298041244473","95.581466363954689","0","0","0","24","0","15","0","0","0"
"06/06/2017 15:39:34.289","29.219050357394096","19455.209654570233","10681934.05876193","10701389.2684165","0.14156383341022455","98.214053955038338","0","0","0","24","0","15","0","0","0"
"06/06/2017 15:39:35.289","29.220224146445663","8191.3765030747772","12069993.277280685","12078184.653783759","0.049554197203507469","96.795935195988548","0","0","0","24","0","14","0","7535625.4163935101","0"
"06/06/2017 15:39:36.289","29.218798460186129","184310.54222781712","11697575.746725459","11881886.288953276","0.24320212903601249","95.36324137253871","0","0","0","24","0","15","0","0","539.97229168305796"
"06/06/2017 15:39:37.289","29.218689391291957","12287.138308079901","11205870.13696887","11218157.27527695","0.14410329842771225","98.014590109006363","0","0","0","24","0","15","0","0","0"
"06/06/2017 15:39:38.289","29.204533806955485","8191.5481304013365","12684612.27992647","12692803.82805687","0.099168546032933194","98.210946635663575","0","0","0","24","0","14","0","829278.25460167939","0"
"06/06/2017 15:39:39.289","29.206250343599478","8191.527114423925","12856601.806088351","12864793.333202774","0.20155663958547204","96.082554031987684","0","0","0","24","0","12","0","12341318.55268074","0"
"06/06/2017 15:39:40.290","29.205536202030498","1458099.3080746122","13958433.825613143","15416533.133687755","0.19835726825705777","97.62921169234005","0","0","0","24","0","14","0","2141.8873427458821","1702.9104316975897"
"06/06/2017 15:39:41.290","29.206751541136981","1564617.8060616374","13958684.510623194","15523302.316684833","0.29524640095957078","95.07995990056331","0","0","0","24","0","13","0","605151.03927847708","752.97391911174543"
"06/06/2017 15:39:42.290","29.205886780618904","1515382.6225061358","11664350.56458777","13179733.187093906","0.19255735525502202","95.427417735674283","0","0","0","24","0","14","0","2141.8058339105673","1294.8826120047547"
"06/06/2017 15:39:43.290","29.205167445293057","2072963.0120654101","11992364.928283568","14065327.940348977","0.46371667258265298","96.108627507836601","0","0","0","24","0","15","0","0","537.96756360134771"
"06/06/2017 15:39:44.290","29.20530248297155","1513390.4584500315","11213219.831181524","12726610.289631557","0.098318693350264719","97.967123780765206","0","0","0","24","0","14","0","757727.17362380237","753.95937663288362"
"06/06/2017 15:39:45.290","29.207502039004023","872410.32098036935","11345429.995847996","12217840.316828365","0.23171314444655863","92.136951327341166","0","0","0","25","0","13","0","7224360.9830135526","2796.8792040122653"
"06/06/2017 15:39:46.290","29.203508039974579","1130919.0170589625","12237885.09903913","13368804.116098093","0.29155644185354268","95.009514404891988","0","0","0","26","0","16","0","0","1394.8902472814098"
"06/06/2017 15:39:47.290","29.205941315065992","401393.58192979422","11021940.091562003","11423333.673491796","0.1929576555034927","95.180498098320214","0","0","0","25","0","15","0","1172586.8806420218","539.98060387956616"
"06/06/2017 15:39:48.290","29.217793468232685","331764.79234347626","11083401.581252428","11415166.373595905","2.0204508808701092","88.498284294560989","0","0","0","25","0","15","0","492141.37451226305","538.98179215233677"
"06/06/2017 15:39:49.291","29.207307273121575","413656.73094088724","11205592.236180866","11619248.967121754","0.50315108100841388","89.824051603557223","0","0","0","26","0","16","0","1404.8666338856228","870.91732250133623"
"06/06/2017 15:39:50.291","29.207972074000338","139256.37776227031","12537169.774420863","12676426.152183134","0.10027841784273916","96.986018114907722","0","0","0","26","0","15","0","1879909.102636728","0"
"06/06/2017 15:39:51.291","29.208525209106494","218581.65819730898","10270778.431079173","10489360.089276483","0.14590119028338461","98.198819114115636","0","0","0","25","0","15","0","0","0"
"06/06/2017 15:39:52.291","29.209413341530464","1191860.5699156276","10362224.198922811","11554084.768838437","0.29053644304082876","95.914321895821033","0","0","0","26","0","15","0","27430.264002367156","886.94386738479386"
"06/06/2017 15:39:53.291","29.210459883538832","2215330.2154948181","12704230.175014656","14919560.390509475","0.24740112828832875","97.420001085873281","0","0","0","26","0","15","0","1502746.382249072","538.9771827657853"
"06/06/2017 15:39:54.291","29.210937709170441","656829.43309310684","12200747.505436417","12857576.938529523","0.14771313116042148","97.843886228192744","0","0","0","32","0","14","0","3487611.5452044136","10217.964452178821"
"06/06/2017 15:39:55.291","29.211997235570969","8191.9614665395793","11644873.224686012","11653065.186152551","0.15257271351155913","96.670347249656615","0","0","0","31","0","13","0","6613564.8910229858","3419.983913032881"
"06/06/2017 15:39:56.292","29.216736538710592","12287.175085144001","12115154.633951984","12127441.809037128","0.3967241783573997","93.586510758007449","0","0","0","29","0","13","0","10661.284241357856","2735.816327551594"
"06/06/2017 15:39:57.292","29.212456883053552","73725.162631947591","12451360.80006226","12525085.962694207","0.32960196393336211","92.863113596690937","0","0","0","28","0","13","0","151574.16655477721","1078.958475475687"
"06/06/2017 15:39:58.292","29.214565548340882","70137.011875946278","12319540.538560374","12389677.55043632","0.37401597831935179","89.625621064400718","0","0","0","28","0","13","0","0","0"
"06/06/2017 15:39:59.292","29.211859601014041","20478.598872530241","11795672.950577419","11816151.549449949","0.29553589515769879","94.099630902593844","0","0","0","28","0","14","0","471168.76305347274","1079.9261124185869"
"06/06/2017 15:40:00.292","29.213332031085358","696815.90951097722","14294709.914435329","14991525.823946306","0.24252261919629273","94.403061894312131","0","0","0","28","0","14","0","0","0"
"06/06/2017 15:40:01.292","29.214038382019048","65531.264207377011","13405239.234421559","13470770.498628937","0.93886996444016768","95.328377514155335","0","0","0","28","0","14","0","700941.34459316439","806.94168419423283"
"06/06/2017 15:40:02.292","29.217811646381715","8191.5866599733354","12058015.56348075","12066207.150140723","0.051054062412541422","95.142694904582598","0","0","0","28","0","14","0","0","0"
"06/06/2017 15:40:03.292","29.213633268983553","345063.80081857718","11336932.945588388","11681996.746406965","0.53846807617124037","92.371647260565041","0","0","0","28","0","15","0","0","540.96206255462448"
"06/06/2017 15:40:04.293","29.214799267399822","12286.376546976127","11020879.762637585","11033166.139184562","0.092702627527601333","95.830541356549787","0","0","0","28","0","14","0","3379824.4089211863","0"
"06/06/2017 15:40:05.293","29.205720580399213","12287.222370264202","12025094.959698565","12037382.18206883","0.34944981327147379","95.143928448228451","0","0","0","28","0","15","0","0","538.96589010192099"
"06/06/2017 15:40:06.293","29.205538798908925","94202.440974470053","11328867.466755833","11423069.907730304","0","98.652015692187561","0","0","0","28","0","15","0","8410.5036837239677","1469.9132582420918"
"06/06/2017 15:40:07.293","29.203424939864735","20478.905352782138","12520802.732690997","12541281.63804378","0.14056377893991034","98.270699561270618","0","0","0","28","0","15","0","0","0"
"06/06/2017 15:40:08.293","29.201246158859728","243701.78726140902","12385784.952579847","12629486.739841256","0.046284672634179805","97.21141096659774","0","0","0","28","0","13","0","3950013.4679559702","0"
"06/06/2017 15:40:09.293","29.199241368709707","20478.905352782138","14589172.173321994","14609651.078674776","0.26693940874375793","97.5550901866646","0","0","0","28","0","12","0","2510246.8212120398","0"
"06/06/2017 15:40:10.295","29.20068263623984","205911.67821410997","13998928.436005421","14204840.114219531","0.59617925971947128","95.168417347834534","0","0","0","28","0","12","0","3788.1936768220835","1831.2263954079356"
"06/06/2017 15:40:11.296","29.199926944615935","60367.340143812224","13121199.491597423","13181566.831741234","0.14382908289001436","97.751650187687204","0","0","0","36","0","12","0","395765.98783206212","23138.349041814414"
"06/06/2017 15:40:12.296","29.21095329044104","16383.684730816613","11960089.853496127","11976473.538226943","0.65015880761056666","92.885769008293593","0","0","0","36","0","12","0","2242.9568390638224","539.98960904791079"
"06/06/2017 15:40:13.296","29.201942122279682","198136.12040257911","11492918.942628155","11691055.063030735","0.49369302782458907","92.580386223429812","0","0","0","40","0","16","0","89786.429318816517","5670.7744812006731"
"06/06/2017 15:40:14.296","29.196776931077107","44028.592225881883","9862404.658597542","9906433.2508234233","0.49962034533076749","92.433993381190277","0","0","0","41","0","14","0","508715.62586025021","1101.914712775296"
"06/06/2017 15:40:15.297","29.196808093618298","21502.620759249454","11091256.574485242","11112759.195244491","0.14743362012480413","97.420276607268931","0","0","0","42","0","14","0","494763.26444256108","2131.8632560788615"
"06/06/2017 15:40:16.297","29.199971091549287","290797.22306823637","9952637.3528987952","10243434.575967031","0.28274672071097234","94.239408021675857","0","0","0","43","0","12","0","2372906.7801438333","2682.8267684449215"
"06/06/2017 15:40:17.297","29.203588543205996","16382.865087720047","11984065.811667215","12000448.676754935","0.38784524265899711","91.643414349984013","0","0","0","43","0","15","0","0","1616.8879911403392"
"06/06/2017 15:40:18.297","29.198246764269996","49149.414878919517","12555627.609277314","12604777.024156233","0.23998228204642363","93.589320433489931","0","0","0","43","0","14","0","231317.83333212181","0"
"06/06/2017 15:40:19.297","29.201251352616591","610286.7759482835","11865777.113571659","12476063.889519943","0.45887704558893905","88.970452809745765","0","0","0","43","0","13","0","525664.16424227552","0"
"06/06/2017 15:40:20.297","29.204687022783009","210418.14325162634","8707522.5801062305","8917940.7233578563","0.14804321189977057","94.435371028925317","0","0","0","43","0","15","0","826.94554283138962","1599.8946415117575"
"06/06/2017 15:40:21.297","29.210441705389805","20478.949136424122","8257112.2918062061","8277591.2409426309","0.14049384320803107","90.890497592776825","0","0","0","43","0","14","0","792055.35620922863","0"
"06/06/2017 15:40:22.297","29.227529165476756","19966.85587913089","7646793.8310435629","7666760.6869226936","0.20138665928618871","92.683467986060421","0","0","0","43","0","15","0","0","539.96905923130407"
"06/06/2017 15:40:23.297","29.219497020484514","287726.03656259918","7413297.169797929","7701023.2063605282","0.34916967090301071","94.006122292875176","0","0","0","43","0","15","0","7741.5166782544302","317.98014772473636"
"06/06/2017 15:40:24.298","29.220089108767162","139252.38832987062","7351706.9721211102","7490959.3604509803","0.41440126641107006","92.641145401300804","0","0","0","43","0","15","0","0","0"
"06/06/2017 15:40:25.298","29.219694383245397","8191.5901626796704","8085099.4905648353","8093291.0807275148","0.19982701989271234","94.360158581763102","0","0","0","43","0","15","0","0","0"
"06/06/2017 15:40:26.298","29.223145634682414","65018.800782480976","9563395.2646987773","9628414.0654812586","0.10511785888729852","93.454795971065337","0","0","0","43","0","15","0","0","0"
"06/06/2017 15:40:27.298","29.226552739186072","135161.00650589293","10251757.554068182","10386918.560574075","0.19655739589947158","93.936527299360577","0","0","0","43","0","15","0","1472260.8223534185","2071.8927962255129"
"06/06/2017 15:40:28.298","29.227856372159273","70652.344309898574","11640229.711810537","11710882.056120435","0.17728952306008658","97.307680962848792","0","0","0","43","0","14","0","118641.86123868951","539.97206079236344"
"06/06/2017 15:40:29.298","29.22792129412009","94206.106635023461","12660481.548211198","12754687.654846221","0.27213905778912933","95.227572624992547","0","0","0","43","0","13","0","3873986.1401887904","1494.969953924933"
"06/06/2017 15:40:30.298","29.227768078292559","184791.30451898492","13653057.269059185","13837848.57357817","0.23551390058887972","96.922753000235346","0","0","0","43","0","13","0","826.81791484808116","538.88132539675416"
"06/06/2017 15:40:31.299","29.228422491657589","29695.403178431312","13238005.941060688","13267701.344239121","0.53266986157262841","95.72514263139692","0","0","0","43","0","13","0","2178.9562070919255","2033.9591212597416"
"06/06/2017 15:40:32.299","29.228554932457655","290790.26005426008","13736768.059464624","14027558.319518885","0.18207873320396178","96.469912314241697","0","0","0","43","0","14","0","119523.42011899594","1643.8544905686192"
"06/06/2017 15:40:33.299","29.228643226324369","418792.36094515666","11992411.079192359","12411203.440137515","0.19239772034398417","96.80165036888728","0","0","0","48","0","13","0","169127.45347164618","7703.5651663773278"
"06/06/2017 15:40:34.299","29.230723325948937","15871.300951710638","12816843.484681424","12832714.785633134","0.14250378306948669","97.111138752409971","0","0","0","48","0","13","0","31194.626038909093","1078.9524777530103"
"06/06/2017 15:40:35.299","29.233782448742616","101370.92826316092","11771315.063770687","11872685.992033847","0.42203146638136613","93.053468851082116","0","0","0","48","0","14","0","4777.760961582454","2860.8568671174971"
"06/06/2017 15:40:36.299","29.232055524584894","14334.89049214759","12852253.246959753","12866588.1374519","1.8581514813857891","89.737766838619777","0","0","0","49","0","15","0","150147.37872561315","5132.602741084931"
"06/06/2017 15:40:37.299","29.232564512757698","12287.642698439577","13037188.903044391","13049476.54574283","0.29864613352845787","95.205483698148626","0","0","0","48","0","14","0","73701.856888492068","1728.94972539079"
"06/06/2017 15:40:38.299","29.233125438499151","160245.24173541967","13188234.591387894","13348479.833123313","0.24240161477091035","96.624125314925621","0","0","0","48","0","14","0","559181.45865390159","943.9366276347605"
"06/06/2017 15:40:39.300","29.233247491785491","99220.443526722695","11607769.001456177","11706989.444982899","0","97.595851346992703","0","0","0","47","0","15","0","93854.260550869425","1724.1310156967156"
"06/06/2017 15:40:40.301","29.233452645181668","143353.01173929143","12713364.241107445","12856717.252846736","0.095778937532714964","95.95266746690757","0","0","0","47","0","15","0","206736.92186149055","592.9710934807465"
"06/06/2017 15:40:41.301","29.235704138782793","82940.666098240763","12385806.137337288","12468746.803435529","0.14620336205739787","97.078242496003952","0","0","0","47","0","13","0","2267295.8632630669","754.9696530692006"
"06/06/2017 15:40:42.301","29.238482798705746","69628.605701941546","12926345.858548678","12995974.46425062","0.10196827364853042","94.077221119571249","0","0","0","47","0","15","0","826.9596868610073","1930.9058710140328"
"06/06/2017 15:40:43.301","29.239230699694357","452073.76871459221","10419711.597824894","10871785.366539486","0.59621089915678771","90.761950689915039","0","0","0","47","0","14","0","86741.734368178484","539.97344613949201"
"06/06/2017 15:40:44.301","29.239087871380558","8191.1803663647697","11348880.397598388","11357071.577964753","0.14297324353585761","96.978694097051815","0","0","0","47","0","15","0","86449.349623433256","1130.8868401316595"
"06/06/2017 15:40:45.302","29.239316396682636","74164.488546970431","11894449.525239982","11968614.013786953","0.22610831883030999","96.070543877609836","0","0","0","46","0","15","0","0","0"
"06/06/2017 15:40:46.302","29.237254475207099","348124.12362229876","13854828.172926869","14202952.296549167","0.14597277521252494","97.947242225417398","0","0","0","50","0","19","0","27769.138215873394","4760.5093996029536"
"06/06/2017 15:40:47.302","29.238404892352765","57341.278252864169","12099009.711354339","12156350.989607204","0.1960974291859007","95.770166853795118","0","0","0","50","0","13","0","12531636.176412007","19086.094064111647"
"06/06/2017 15:40:48.302","29.232803425573501","233457.42468424418","13446328.512953922","13679785.937638167","0.44141906024044825","91.503750467196085","0","0","0","50","0","14","0","17676.896388295248","1079.9325771783499"
"06/06/2017 15:40:49.303","29.232769666153878","22014.66322653474","13982894.931235274","14004909.59446181","0.19556749018188008","96.39784460808562","0","0","0","50","0","15","0","94301.273841970004","1707.8962931922845"
"06/06/2017 15:40:50.303","29.231956843204454","146423.10890206828","14205601.408061847","14352024.516963916","0.17003037849432176","97.926019337368459","0","0","0","50","0","13","0","599180.61657950887","1466.9109262957152"
"06/06/2017 15:40:51.303","29.203765130939413","12287.30117960662","12647728.680875082","12660015.982054688","1.2669536668514787","92.975091376945969","0","0","0","50","0","13","0","134832.33162908177","1131.9356229911048"
"06/06/2017 15:40:52.303","29.208683618690891","82942.474884021052","13209357.111158907","13292299.586042929","0.048214537292924714","95.420768826891916","0","0","0","50","0","12","0","2136883.7077617059","539.990070859512"
"06/06/2017 15:40:53.303","29.217258511275556","69628.159108411361","13696268.474031035","13765896.633139446","0.25058105788781398","89.919864255678476","0","0","0","50","0","15","0","5510.6960139943558","3400.8124013055353"
"06/06/2017 15:40:54.303","29.214253922928958","17406.689954778372","11164855.721582551","11182262.411537329","0.48626364204388711","86.295548345946699","0","0","0","50","0","15","0","64868.117959348419","539.95936210824448"
"06/06/2017 15:40:55.303","29.217429905252111","18430.620773993105","13704190.468840208","13722621.089614201","0.19357731273894699","93.184748747446804","0","0","0","50","0","15","0","1198.9102814679761","962.92794082874138"
"06/06/2017 15:40:56.303","29.218260906350562","142331.25263853767","12516958.50542075","12659289.758059289","0.24910125371532124","96.793010086636002","0","0","0","49","0","15","0","10116.662565648083","3472.8841643269539"
"06/06/2017 15:40:57.304","29.218107690523038","75756.012443863045","9725434.0299553908","9801190.0423992537","0","98.322977007477036","0","0","0","49","0","14","0","771200.52553903253","2369.3748613275366"
"06/06/2017 15:40:58.304","29.215788678082667","122873.32703626658","11353495.418151032","11476368.745187299","0.21139558381006993","97.398150513615676","0","0","0","49","0","14","0","10044.454509108869","5264.7140856603482"
"06/06/2017 15:40:59.304","29.21556015278059","8191.7337762186326","11345551.280062806","11353743.013839025","0.27410872419456939","97.434492724380149","0","0","0","49","0","14","0","113590.30841989494","4535.8525889804341"
"06/06/2017 15:41:00.304","29.217235139369663","8191.5691464865859","11447717.882215004","11455909.45136149","0.13622437506418011","97.742518933078372","0","0","0","50","0","14","0","2787826.3681686581","6081.6801207191666"
"06/06/2017 15:41:01.304","29.226409910872274","96763.779436678742","11550216.212124193","11646979.991560871","0.99805522364928034","90.655744589372219","0","0","0","49","0","14","0","10436.544787332754","3651.8407170009791"
"06/06/2017 15:41:02.304","29.224270083043756","73722.95594110887","14720016.869574737","14793739.825515846","0.34369016630972471","93.655915279419105","0","0","0","45","0","14","0","826.94342126867718","537.96319303814789"
"06/06/2017 15:41:03.304","29.187999481974693","1173923.1314180063","15334210.916804241","16508134.048222248","0.52867803893383691","88.728710995071381","0","0","0","45","0","14","0","422208.59924924519","735.94177994478162"
"06/06/2017 15:41:04.305","29.184984506114365","178675.01116604198","12209288.442085298","12387963.453251339","0.39582416356185957","92.226100217594791","0","0","0","45","0","14","0","126347.81510738027","1293.9059391165513"
"06/06/2017 15:41:05.305","29.184156101894342","252923.89010359338","11374407.1711365","11627331.061240094","0.34692097139071854","93.601929782899433","0","0","0","45","0","14","0","0","0"
"06/06/2017 15:41:06.305","29.18906420213208","8191.562141112855","11468186.997557996","11476378.559699109","0.3315615720138036","91.534271177970467","0","0","0","45","0","14","0","3709444.7211724017","538.97119068113147"
"06/06/2017 15:41:07.305","29.190560004109301","538078.63653276872","11266373.430580504","11804452.067113273","0.63966669419684508","89.575394659771987","0","0","0","45","0","15","0","0","539.96651947493297"
"06/06/2017 15:41:08.305","29.190012062760008","1153939.9350780565","10701845.786544675","11855785.721622732","0.51262925343346821","90.091234188748643","0","0","0","45","0","14","0","1675859.0580545906","0"
"06/06/2017 15:41:09.305","29.193117929365474","865227.46169403975","12320019.904263534","13185247.365957575","0.35106948658124848","87.356179096932223","0","0","0","45","0","15","0","0","540.96715141512061"
"06/06/2017 15:41:10.305","29.192977697930111","12287.19610070805","12266717.440540204","12279004.636640912","0.40371337110563726","90.601875483381662","0","0","0","45","0","14","0","1754243.2272823872","0"
"06/06/2017 15:41:11.305","29.205637480289369","888314.30209322635","11095992.827068819","11984307.129162045","0.35986951467959855","88.622010023872306","0","0","0","45","0","14","0","0","0"
"06/06/2017 15:41:12.305","29.209296482000997","1072573.4952770225","12188940.226995394","13261513.722272417","0.60039119516903361","85.553035622117704","0","0","0","45","0","15","0","0","540.96645747396065"
"06/06/2017 15:41:13.306","29.209982057907219","278512.27916157118","10956181.569958866","11234693.849120436","0.56012435342577849","87.449070968882452","0","0","0","45","0","15","0","6152.6527088161602","807.95439439679137"
"06/06/2017 15:41:14.291","29.253282408893522","9999696.7269159742","13472225.124053331","23471921.850969307","0.47262545526452215","87.316728082564239","0","0","0","45","0","15","0","0","0"
"06/06/2017 15:41:15.291","29.277145124811298","20808183.833900329","13499746.360561077","34307930.194461405","0.79512919624578871","85.625311589416484","0","0","0","45","0","15","0","0","0"
"06/06/2017 15:41:16.291","29.267882059441973","5353172.1252290308","13593862.497042963","18947034.622271992","2.3852035549079864","82.281863532016644","0","0","0","45","0","14","0","3923426.2169422731","0"
"06/06/2017 15:41:17.291","29.196722396630019","409578.98272848246","13831482.246740853","14241061.229469335","1.0206930285789249","81.989104048676026","0","0","0","45","0","15","0","0","536.97244561815205"
"06/06/2017 15:41:18.291","29.212324442253486","8354695.6444630688","12811318.328760576","21166013.973223645","0.34387986921926211","85.32239287675128","0","0","0","45","0","15","0","0","0"
"06/06/2017 15:41:19.292","29.21758052420121","4167415.280269119","12033744.07390425","16201159.35417337","0.58010324289449688","85.381428245648934","0","0","0","45","0","15","0","5601.1390535994624","1851.0630758551461"
"06/06/2017 15:41:20.292","29.22164463894833","255974.93369341065","12000104.891547091","12256079.825240502","0.34114988077402097","85.531401507182764","0","0","0","45","0","15","0","0","0"
"06/06/2017 15:41:21.292","29.226145029272143","20479.045461095502","11628002.012810025","11648481.058271121","0.22167450743164535","90.248371437284717","0","0","0","46","0","15","0","0","181.99151728121979"
"06/06/2017 15:41:22.293","29.231912696271102","212979.61390605915","10419618.034173356","10632597.648079416","0.098388636112529002","90.306679578508692","0","0","0","46","0","15","0","2052.8806121785769","169.99011401381298"
"06/06/2017 15:41:23.293","29.233878533244628","126959.60430129596","13579558.321355551","13706517.925656848","0.27468632629184259","92.000313138812672","0","0","0","46","0","15","0","1085.8597709110966","806.89579661625692"
"06/06/2017 15:41:24.295","29.2338525644603","313206.42421666498","13541962.58962233","13855169.013838995","0.062048760666314678","97.657205245185907","0","0","0","46","0","15","0","0","0"
"06/06/2017 15:41:25.295","29.233727914295532","90105.873567518865","12848278.426423032","12938384.29999055","0.13740412982300546","98.340611659353357","0","0","0","47","0","15","0","40641.23674181282","3701.7483126215693"
"06/06/2017 15:41:26.295","29.235291235111998","729044.04277133709","12579081.552592523","13308125.595363859","0.10842753083395409","98.064842543107545","0","0","0","47","0","15","0","0","0"
"06/06/2017 15:41:27.295","29.235163988068795","2912209.9232512247","11931459.221421685","14843669.14467291","0","98.537456437457422","0","0","0","50","0","17","0","190934.97904227595","2657.9579460053496"
"06/06/2017 15:41:28.295","29.236304017700736","2722621.570939349","14482421.774865044","17205043.345804393","0.047404444199139861","96.827011874208353","0","0","0","50","0","16","0","178647.24236379692","0"
"06/06/2017 15:41:29.295","29.236187158171269","3074386.4639066816","12778798.690942677","15853185.15484936","0.051544093046936829","98.039804638388432","0","0","0","52","0","16","0","5651500.9967075167","2580.8543217055922"
"06/06/2017 15:41:30.296","29.235945648477031","2191386.3651210461","13822669.633460233","16014055.998581279","0.04982352419793469","98.227057970859533","0","0","0","53","0","16","0","7020.1638449681832","1394.0396532000875"
"06/06/2017 15:41:31.296","29.241609440338678","65532.385043210692","13356319.22661938","13421851.611662589","0.19147805661471196","96.756901659069868","0","0","0","52","0","15","0","5652962.1661799904","2594.8568601552083"
"06/06/2017 15:41:32.296","29.239139808949211","12287.290671635888","12930325.550118165","12942612.840789802","0.090679490247080358","98.045646509569536","0","0","0","54","0","15","0","36742.878884217178","2133.8768142310373"
"06/06/2017 15:41:33.297","29.239565697012171","86015.043675707289","12062585.886902761","12148600.930578468","0","97.043023842608164","0","0","0","53","0","15","0","4214.9531377081739","1028.9885595970843"
"06/06/2017 15:41:34.297","29.238628223897976","287710.16662455112","12266077.566413246","12553787.733037798","0.28242568527923856","97.306617246004606","0","0","0","53","0","15","0","0","0"
"06/06/2017 15:41:35.297","29.239025546298176","90109.765104212536","13147833.908387374","13237943.673491588","0.099089110106799258","98.296137254515727","0","0","0","53","0","15","0","1129.971974517935","283.99295642751645"
"06/06/2017 15:41:36.297","29.227544746747352","139254.1746146245","12909681.128979307","13048935.303593932","0.2556699332158538","96.67919052719401","0","0","0","53","0","14","0","13156359.724027054","0"
"06/06/2017 15:41:37.297","29.187246387229216","16382.738996061073","13470707.139511216","13487089.878507279","1.8297388481369252","90.886481700011828","0","0","0","53","0","14","0","7286779.1257053036","843.93504105685702"
"06/06/2017 15:41:38.297","29.187191852782128","96764.358707885345","13766137.973214926","13862902.331922812","0.20810604699399099","97.318878597073478","0","0","0","54","0","15","0","269039.87589240813","1202.9547322005835"
"06/06/2017 15:41:39.297","29.19012113165418","151545.84362507338","13241830.065942222","13393375.909567297","0.85592302392138964","90.935756978734304","0","0","0","54","0","16","0","0","538.97810463678843"
"06/06/2017 15:41:40.297","29.189923768893294","18431.156677292522","10271274.034995627","10289705.191672919","0.22368416447900269","92.187792309988197","0","0","0","54","0","15","0","734096.41121423396","1493.9316447414838"
"06/06/2017 15:41:41.297","29.178037856306975","20477.985939545692","13408985.193214517","13429463.179154063","0.24880074103285454","93.731307198273484","0","0","0","54","0","16","0","222.9780695565766","538.94699323316047"
"06/06/2017 15:41:42.298","29.178609169562165","12287.348465697332","12926290.585913593","12938577.934379291","0.15822174121106425","95.02679390798302","0","0","0","54","0","15","0","13709724.044504268","0"
"06/06/2017 15:41:43.298","29.176632945074903","94205.341253761871","12385954.432668518","12480159.773922279","0.16397142203788312","98.012175220547519","0","0","0","54","0","16","0","0","539.98476007378792"
"06/06/2017 15:41:44.302","29.178271575365915","419672.56434272282","12075147.416325243","12494819.980667967","0.37297494701058853","95.385631357023897","0","0","0","55","0","16","0","2282755.3790376573","284.84382926891595"
"06/06/2017 15:41:45.304","29.178889632432892","57225.390572144875","12859362.767140556","12916588.1577127","0","94.918402659971505","0","0","0","55","0","14","0","676475.88780455536","1058.8054442844189"
"06/06/2017 15:41:46.304","29.185880429173633","8191.5376223991525","12647734.08898429","12655925.62660669","0.099198373950573002","94.427383110699424","0","0","0","55","0","15","0","1863392.8193683564","1078.9390984580914"
"06/06/2017 15:41:47.304","29.178510488181725","12287.55337629612","10903155.695900092","10915443.249276388","0.18765881331997616","91.531746065869172","0","0","0","55","0","14","0","27592.997059368096","0"
"06/06/2017 15:41:48.304","29.184426177251339","126969.48464582957","11730342.065343738","11857311.549989568","0.37009729077264486","89.970177441523248","0","0","0","55","0","15","0","0","539.97229168305796"
"06/06/2017 15:41:49.304","29.179666099084262","27646.273975765758","12754147.727486603","12781794.001462368","0.624607857792425","87.6427272650009","0","0","0","56","0","17","0","0","1055.9340754632753"
"06/06/2017 15:41:50.305","29.172337708147271","8191.1873710855325","13159142.511648908","13167333.699019993","0.44099796224045562","93.053749657540408","0","0","0","58","0","21","0","663095.21584429359","11434.865573209736"
"06/06/2017 15:41:51.305","29.174334707661991","12287.306433598727","13171992.496817837","13184279.803251436","0.23341315748688901","94.344770351409593","0","0","0","58","0","16","0","1419724.8625452183","5590.6844295451247"
"06/06/2017 15:41:52.305","29.175685084446979","143351.4180208563","13450458.765156917","13593810.183177775","0.12292585123452289","95.678417414155632","0","0","0","53","0","16","0","0","0"
"06/06/2017 15:41:53.305","29.173545256618461","73724.626709170087","13159845.86758686","13233570.494296031","0.2728985075122331","97.785665534197349","0","0","0","53","0","15","0","3163686.2446546811","0"
"06/06/2017 15:41:54.305","29.173446575238021","279541.71977761184","13827587.486728463","14107129.206506075","0.23571308156608517","96.297452830886712","0","0","0","53","0","14","0","2322855.5763576203","0"
"06/06/2017 15:41:55.305","29.17160538842926","16382.6059014156","14125901.938495601","14142284.544397015","0.31198356032015462","95.751066275459024","0","0","0","52","0","15","0","0","539.95405192653948"
"06/06/2017 15:41:56.305","29.171195081636895","602078.78758449818","13662990.30975128","14265069.097335776","0.049584297805752332","98.506011808642","0","0","0","51","0","14","0","750026.62635179074","539.97021367391619"
"06/06/2017 15:41:57.305","29.171574225888069","8190.500965387977","13915661.140194172","13923851.641159561","0.19825158696246378","97.319684533037034","0","0","0","51","0","14","0","0","0"
"06/06/2017 15:41:58.306","29.172103989088331","65532.076809534316","12320030.440192452","12385562.517001985","0","98.658127804170221","0","0","0","51","0","14","0","205239.71297165737","1078.9354076765064"
"06/06/2017 15:41:59.307","29.175970741074575","23526.748158722752","12446672.678058194","12470199.426216917","0.15041256073738715","94.028637320934337","0","0","0","51","0","14","0","0","0"
"06/06/2017 15:42:00.307","29.171704069809699","323569.33335955947","10786327.081043037","11109896.414402597","0.39092488726800928","93.266627031240589","0","0","0","52","0","16","0","217970.11992470818","10010.546245372299"
"06/06/2017 15:42:01.307","29.172519489637562","3166031.9986180109","12552006.227379976","15718038.225997986","0.58305318210533075","93.832936745448976","0","0","0","52","0","15","0","378767.94409101288","11251.374530179273"
"06/06/2017 15:42:02.307","29.173259599990871","2023826.9561072309","11742599.308190094","13766426.264297325","0.15317230859835687","98.163432123589729","0","0","0","54","0","16","0","917262.57784862572","5994.6770065174242"
"06/06/2017 15:42:03.307","29.164022503405874","77818.609166670227","11615451.347193513","11693269.956360184","0.13720409804503658","96.819388632857454","0","0","0","54","0","13","0","7619064.1943036476","0"
"06/06/2017 15:42:04.307","29.16391603139013","20476.751428770545","11925660.032115966","11946136.783544738","0.24665748662109835","96.949269500523343","0","0","0","54","0","13","0","5809448.3495696057","539.91434431328594"
"06/06/2017 15:42:05.307","29.163695296723358","12287.873891194209","12648318.192002572","12660606.065893766","0.14604319042878164","96.829714899815031","0","0","0","54","0","13","0","208731.85781286881","538.99446837188134"
"06/06/2017 15:42:06.308","29.164289981884433","12286.854606699488","11930535.823105203","11942822.677711902","0.05004422489644695","98.570314985650654","0","0","0","53","0","12","0","424711.40796307079","538.94975854581901"
"06/06/2017 15:42:07.308","29.164053665947065","8191.4080259221264","11762861.925224174","11771053.333250094","0.049964229131535302","98.52906989242743","0","0","0","50","0","11","0","114811046.87166913","0"
"06/06/2017 15:42:08.308","29.163866690699912","199160.33516546953","13237762.534803033","13436922.869968502","0.23874242524988365","98.100599380771527","0","0","0","49","0","11","0","0","0"
"06/06/2017 15:42:09.308","29.165718265022406","8191.3554879779986","11467897.683169197","11476089.038657175","0.97245777837237579","95.77845716604304","0","0","0","45","0","11","0","0","0"
"06/06/2017 15:42:10.308","29.165731249414566","53246.998144166617","11697955.899979988","11751202.898124155","0.099788644052306849","98.383823920837813","0","0","0","45","0","11","0","0","0"
"06/06/2017 15:42:11.308","29.16560919612823","57335.761990436382","11446675.340233549","11504011.102223987","0.098002859299908443","97.211757663584635","0","0","0","45","0","11","0","0","0"
"06/06/2017 15:42:12.308","29.166827132113156","74747.65295741499","11074939.923115076","11149687.576072492","0.17050030721451673","98.302666042072133","0","0","0","45","0","11","0","0","0"
"06/06/2017 15:42:13.308","29.16746596420759","8191.6251899077879","13045163.114928152","13053354.74011806","0.091279502857171416","98.48489423716272","0","0","0","38","0","11","0","0","0"
"06/06/2017 15:42:14.309","29.165923418418583","279539.44866766181","12058082.591613134","12337622.040280795","0.10192835978131297","98.044073366821507","0","0","0","38","0","11","0","0","0"
"06/06/2017 15:42:15.309","29.16581954328128","24573.908852123397","11474991.521072788","11499565.429924913","0.099568380370010826","98.005542753160697","0","0","0","38","0","11","0","0","0"
"06/06/2017 15:42:16.309","29.16467951364934","180214.75240053228","9625106.0941193383","9805320.8465198707","0.21984460794778204","96.86768178275409","0","0","0","39","0","11","0","3243.8335448515554","569.97075233211672"
"06/06/2017 15:42:17.309","29.166110393665733","2965174.3288027816","11217696.804683452","14182871.133486234","0.046132189820263431","98.350459267246066","0","0","0","40","0","11","0","2719.6976211610458","561.93752319577493"
"06/06/2017 15:42:18.309","29.173028477810366","11956419.006584309","12463285.568333054","24419704.574917365","0.20759656234811091","97.532178617034134","0","0","0","39","0","12","0","302.99196695444692","270.99281532889478"
"06/06/2017 15:42:19.309","29.176503101153273","5424122.7603622619","11485624.740795407","16909747.501157667","0.049874154749063412","98.474858746554901","0","0","0","39","0","11","0","2921.7213871848689","322.96920193727334"
"06/06/2017 15:42:20.309","29.178975329421171","3807555.1305936258","10747370.888990372","14554926.019583998","0.049844242989934659","98.156712899660093","0","0","0","39","0","12","0","0","238.9881452670864"
"06/06/2017 15:42:21.309","29.178863663648563","12287.74778497684","12263172.289406886","12275460.037191862","0.14978302958274825","96.789173786609979","0","0","0","39","0","11","0","17667.637358802964","0"
"06/06/2017 15:42:22.310","29.179938771319691","26102.289194057616","11616030.500947678","11642132.790141735","0.15024275750938892","98.436215801779525","0","0","0","39","0","11","0","2978.8917661723226","798.7028594535858"
"06/06/2017 15:42:23.295","29.179827105547083","110194.3748445846","10911322.248761887","11021516.623606471","0.34424526114604681","97.938507677708799","0","0","0","39","0","11","0","0","0"
"06/06/2017 15:42:24.295","29.180401015680708","410594.32729934657","11345100.115902144","11755694.443201492","0.29867499529055197","97.366108692061289","0","0","0","39","0","11","0","0","0"
"06/06/2017 15:42:25.295","29.180156909108035","67581.110100452061","10092112.441667506","10159693.551767958","0.041675261522764864","98.191695604209812","0","0","0","39","0","11","0","0","0"
"06/06/2017 15:42:26.295","29.179367458064505","89082.705004175456","11312479.596392304","11401562.30139648","0.10031833297787468","98.330664143760089","0","0","0","39","0","11","0","1404.916493027866","386.97699843543353"
"06/06/2017 15:42:27.295","29.180917794488803","36861.462208955527","11932362.495890647","11969223.958099602","0.34252013065679154","96.446713602536661","0","0","0","39","0","12","0","0","747.94850619299962"
"06/06/2017 15:42:28.295","29.1808139193515","84473.461828726868","10169580.883429276","10254054.345258003","0.18266892000663124","98.054594499794717","0","0","0","42","0","11","0","479736.86879043089","7097.4506635926055"
"06/06/2017 15:42:29.296","29.180681478551435","113133.32608894556","11351214.356091758","11464347.682180705","0.17848976840620123","98.088540842894005","0","0","0","44","0","11","0","37283.845887450327","5014.1723552041676"
"06/06/2017 15:42:30.299","29.180577603414125","12250.695676974688","11184885.153077891","11197135.848754866","0.19400551760823626","97.825565104248184","0","0","0","43","0","11","0","5602.9386152830202","1510.4007121270063"
"06/06/2017 15:42:31.299","29.180486712668984","61436.29573915762","12467472.28199972","12528908.577738877","0.3762395918678334","97.461762606696041","0","0","0","42","0","11","0","0","0"
"06/06/2017 15:42:32.299","29.181328101281167","139258.40233778697","11144768.022385834","11284026.42472362","0.40025397079335878","96.20910595281542","0","0","0","41","0","11","0","0","0"
"06/06/2017 15:42:33.299","29.181886430144189","798667.74654602318","11738368.008209758","12537035.75475578","0.24139211921023121","97.823191421390831","0","0","0","41","0","11","0","0","0"
"06/06/2017 15:42:34.299","29.182444759007215","2319279.6667078589","12058206.337815342","14377486.004523201","0.29730607737657133","97.397946894259363","0","0","0","41","0","12","0","0","414.98562607088229"
"06/06/2017 15:42:35.300","29.181582595367566","1980311.3845344225","10736233.621938687","12716545.006473109","0.36404318174440059","97.718159956248897","0","0","0","41","0","12","0","0","0"
"06/06/2017 15:42:36.301","29.182159102379622","1978255.4899166659","10698143.560377497","12676399.050294163","1.6193444231291094","96.510969842856014","0","0","0","42","0","12","0","1404.920097440373","288.98356452688097"
"06/06/2017 15:42:37.301","29.182078599148209","2043862.922212031","9969463.6325933523","12013326.554805383","0.38977548763931158","96.462204016301328","0","0","0","43","0","12","0","479.99035309964404","283.99429225062272"
"06/06/2017 15:42:38.301","29.17985047745298","1994586.5327542135","11361361.482259115","13355948.015013328","0.45432698004142913","97.529548301713191","0","0","0","43","0","12","0","0","0"
"06/06/2017 15:42:39.301","29.180434775100327","1990481.5104451857","10484840.878065176","12475322.388510361","0.44303488646012434","97.539156128977552","0","0","0","43","0","12","0","0","0"
"06/06/2017 15:42:40.301","29.186184263950253","2176950.4584019459","10092203.06585587","12269153.524257816","0.50007649181537572","96.330882595562272","0","0","0","43","0","12","0","647.97811004585208","423.98567694358218"
"06/06/2017 15:42:41.301","29.188064403935503","2031473.5336025434","9502053.624915123","11533527.158517666","0.31401388840283367","97.341945676247235","0","0","0","43","0","12","0","0","0"
"06/06/2017 15:42:42.301","29.187939753770735","2015175.1259500368","9993957.9417034332","12009133.067653472","0.2962664330131396","97.789680429207365","0","0","0","43","0","12","0","0","0"
"06/06/2017 15:42:43.301","29.19797928579143","1627030.9417444635","9305511.1381835639","10932542.079928027","0.97655515711352336","91.923789762323949","0","0","0","43","0","12","0","0","0"
"06/06/2017 15:42:44.301","29.200415157761274","334835.25679664523","11230804.576592064","11565639.833388709","0.83148570952054046","91.581634642631528","0","0","0","43","0","11","0","20078757.840046491","0"
"06/06/2017 15:42:45.304","29.200963099110567","267215.40855343058","12537665.220827213","12804880.629380643","0.47867635495075628","95.726689163028368","0","0","0","46","0","11","0","7197.8995201059643","2908.8974214763462"
"06/06/2017 15:42:46.304","29.20086961148699","13311.260020062788","13122854.493624976","13136165.75364504","0.28432727393077056","97.789504428040331","0","0","0","46","0","11","0","0","0"
"06/06/2017 15:42:47.304","29.200080160443459","61436.74232848666","12090750.890246175","12152187.632574663","0.27827788673187115","97.770767253458942","0","0","0","46","0","11","0","891.95270437841964","248.98679752267543"
"06/06/2017 15:42:48.304","29.199893185196306","225778.00067645198","12778727.657333881","13004505.658010332","0.38840513920642167","96.651476754434867","0","0","0","46","0","11","0","0","0"
"06/06/2017 15:42:49.304","29.198158470403285","20478.730220086349","12926174.514918502","12946653.245138589","0.43660957159448083","97.688037031722843","0","0","0","45","0","11","0","0","0"
"06/06/2017 15:42:50.304","29.198033820238518","8191.593665389003","12201378.76459692","12209570.35826231","0.22981347952446288","98.185109438370816","0","0","0","45","0","11","0","0","0"
"06/06/2017 15:42:51.304","29.198688233603548","8191.7092564774557","11337325.610964799","11345517.320221277","0.34725062177949023","97.856993016991879","0","0","0","45","0","11","0","0","0"
"06/06/2017 15:42:52.304","29.199251756223436","16383.012197108699","11566406.611158742","11582789.623355851","0.14679306008086665","98.362508966465271","0","0","0","45","0","11","0","0","0"
"06/06/2017 15:42:53.304","29.199132299815535","73725.068056773627","11075143.556973105","11148868.625029879","0.20231671334629384","96.530089386711595","0","0","0","45","0","11","0","0","0"
"06/06/2017 15:42:54.305","29.198945324568381","8188.5999421243605","7734132.6453364585","7742321.2452785829","0.50095957778577427","97.167806165287274","0","0","0","45","0","11","0","0","0"
"06/06/2017 15:42:55.305","29.198786914983994","12287.290671635888","6782584.4507430103","6794871.7414146457","0.24478185008723996","98.052403973543051","0","0","0","47","0","11","0","3091.8215134031711","1601.9075240853429"
"06/06/2017 15:42:56.305","29.198662264819227","139254.82959718336","10222942.784546167","10362197.614143351","0.24821133159120121","98.275839140579265","0","0","0","47","0","11","0","0","0"
"06/06/2017 15:42:57.305","29.198550599046619","90107.337670595283","11025861.500420114","11115968.838090708","0.23723259963474219","97.995291543826696","0","0","0","47","0","11","0","0","0"
"06/06/2017 15:42:58.305","29.198392189462226","8191.649709145704","11599375.988150317","11607567.637859462","0.24310223772445189","97.929406461782065","0","0","0","47","0","11","0","0","0"
"06/06/2017 15:42:59.305","29.197288516128346","8191.2364044663245","10353722.815245435","10361914.051649902","0.23661229270052478","96.570461598946764","0","0","0","46","0","11","0","321.96998562477501","297.97222272106507"
"06/06/2017 15:43:00.306","29.197169059720441","8186.1190868504","11345961.054374656","11354147.173461506","0.24632648591266701","97.986811560837808","0","0","0","45","0","11","0","38643.238672801737","265.80904261501541"
"06/06/2017 15:43:01.306","29.198870015093835","12287.469309582666","11841024.591334496","11853312.060644079","0.47380527549068086","96.538889758232926","0","0","0","45","0","11","0","0","0"
"06/06/2017 15:43:02.307","29.198979083988007","109561.06613485581","10784085.500301881","10893646.566436738","0.43546543618084654","97.636056202157874","0","0","0","44","0","11","0","0","0"
"06/06/2017 15:43:03.307","29.199794503815866","8191.5551357511058","9637364.6172111761","9645556.1723469272","0.23318586526294527","97.795728142137278","0","0","0","45","0","11","0","1006.9453151490922","526.97138141367589"
"06/06/2017 15:43:04.307","29.199558187878495","143351.78579888845","10550691.434798189","10694043.220597077","0.38452497212576409","96.430667968780853","0","0","0","45","0","11","0","0","0"
"06/06/2017 15:43:05.307","29.198997262137038","8191.5236117715067","11296111.060632907","11304302.58424468","0","98.085851849770606","0","0","0","45","0","11","0","0","0"
"06/06/2017 15:43:06.307","29.198838852552644","8191.4325438600235","10317109.288991699","10325300.72153556","0.24610167369735744","97.871265017396496","0","0","0","44","0","11","0","0","0"
"06/06/2017 15:43:07.307","29.198709008631013","157176.20345465149","9903636.7414553054","10060812.944909956","0.1921378272947302","97.987152282626582","0","0","0","45","0","12","0","1023.9492081736254","1821.9096262620562"
"06/06/2017 15:43:08.307","29.198566180317215","71162.765940052166","10661103.870040622","10732266.635980673","0.31772330295850831","97.741950804682048","0","0","0","45","0","12","0","164.98786505323471","773.94307606790107"
"06/06/2017 15:43:09.307","29.197028828285077","12287.663715603234","9436925.7335832845","9449213.3972988874","0.44854877572981167","96.282934488881367","0","0","0","45","0","12","0","679.98139051189776","1082.9703616535078"
"06/06/2017 15:43:10.307","29.196792512347702","12287.206608517032","9657744.3942943867","9670031.6009029038","0.26764887243613567","97.965456617395404","0","0","0","45","0","12","0","0","0"
"06/06/2017 15:43:11.308","29.196652280912339","8191.5376223991525","12262731.82073153","12270923.35835393","0.23199320478484736","97.329588432536042","0","0","0","45","0","12","0","0","0"
"06/06/2017 15:43:12.308","29.196501661963243","139255.36549658715","11808035.844901787","11947291.210398374","0.35377903238804947","97.671449646130981","0","0","0","45","0","12","0","2903.8199491763062","1272.921072762203"
"06/06/2017 15:43:13.308","29.196397786825941","41469.676945634223","12201300.505782159","12242770.182727793","0.28509707128826622","97.780396364219939","0","0","0","45","0","12","0","0","0"
"06/06/2017 15:43:14.308","29.196896387485012","52734.195986672414","6815510.8444134295","6868245.0404001018","0.24387246679849844","97.479894519908711","0","0","0","44","0","12","0","0","0"
"06/06/2017 15:43:15.308","29.197859829383528","8191.5481304013365","7237232.7732095802","7245424.3213399816","0.35175937179255795","96.545728968304161","0","0","0","48","0","13","0","24296.659725645957","2007.8892389948587"
"06/06/2017 15:43:16.308","29.197737776097192","36861.115457189881","10947751.290785393","10984612.406242583","0.279757240427146","97.788798931645104","0","0","0","48","0","12","0","12298.037624999411","0"
"06/06/2017 15:43:17.308","29.196527630747571","143352.27617253343","12123506.784877112","12266859.061049646","0.27922774919496801","97.44001567818917","0","0","0","48","0","12","0","0","0"
"06/06/2017 15:43:18.308","29.196402980582803","49148.280033608346","11717769.09801279","11766917.378046399","0.19206773934900945","97.391652307497552","0","0","0","49","0","12","0","0","963.92704167477302"
"06/06/2017 15:43:19.308","29.197049603312536","40957.845732432928","13326659.055190364","13367616.900922798","0.42485114211865638","97.759087704913938","0","0","0","51","0","12","0","4071.7858355094454","892.95303318023934"
"06/06/2017 15:43:20.309","29.196654877790774","139256.85412768403","12074388.410835663","12213645.264963347","0.38841529339972969","95.849777690587814","0","0","0","51","0","12","0","12644.351163578274","1809.907125826546"
"06/06/2017 15:43:21.309","29.195777132880529","63996.031937769832","12188940.226995394","12252936.258933164","0.24547154984737268","97.547704221080778","0","0","0","50","0","12","0","1101.9316749284744","831.94841519100783"
"06/06/2017 15:43:22.309","29.19567325774322","8191.5516330747232","11533704.699369211","11541896.251002286","0.19867715212750536","98.136824265209498","0","0","0","50","0","12","0","14809.189414774981","394.97838074518012"
"06/06/2017 15:43:23.309","29.195558995092185","118777.29552478771","9552356.8099202104","9671134.1054449994","0.34025070104402938","97.944477412858816","0","0","0","51","0","12","0","11239.365585420712","1841.896032770903"
"06/06/2017 15:43:24.309","29.196306896080792","279533.95034376247","9895297.0553923827","10174831.005736144","0.14609306781344042","97.725433622243187","0","0","0","50","0","12","0","0","0"
