Name,# requests,50%,66%,75%,80%,90%,95%,98%,99%,100%
POST /arcgis/rest/services/Public/LDQ_Status_newViewer/MapServer/0/,8,52,56,85,85,160,160,160,160,157
get /pubs/ldq/LDQ-42122F2.zip,1,56,56,56,56,56,56,56,56,56
get /pubs/ldq/LDQ-43117A2.zip,1,69,69,69,69,69,69,69,69,69
get /pubs/ldq/LDQ-44120D5.zip,1,54,54,54,54,54,54,54,54,54
get /pubs/ldq/LDQ-44123B6.zip,1,56,56,56,56,56,56,56,56,56
get /pubs/ldq/LDQ-44123C1.zip,1,66,66,66,66,66,66,66,66,66
GET LDQ_Status_newViewer/MapServer/0/query envelope,57,1800,3400,4700,6600,12000,22000,29000,29000,28804
GET LDQ_Status_newViewer/MapServer/0/query point,3,77,77,1300,1300,1300,1300,1300,1300,1258
None Total,73,470,2900,3600,4700,9800,15000,29000,29000,28804
