{
			"title":"Locust induced 8 user",
			"description":"8 locust users are used with min_wait=1000, max_wait=2000. Some Downloads. This approximates 2 web application users",
			"perfMonFile":"../results/P09_PerfMon.csv",
			"locustFile":"../results/P09_LocustCustom.pkl",
			"outFile":"../results/P09_Locust_U8_Min1000_Max2000_Downloads.html",
			"pheight":400,
			"pwidth":400
}