Method,Name,# requests,# failures,Median response time,Average response time,Min response time,Max response time,Average Content Size,Requests/s
POST,/arcgis/rest/services/Public/LDQ_Status_newViewer/MapServer/0/,18,0,50,66,44,231,3461,0.15
get,/pubs/ldq/LDQ-42117G1.zip,1,0,53,53,53,53,1479233952,0.01
get,/pubs/ldq/LDQ-42122B4.zip,1,0,54,54,54,54,2455552793,0.01
get,/pubs/ldq/LDQ-43123E4.zip,1,0,68,68,68,68,2007586007,0.01
get,/pubs/ldq/LDQ-44123C4.zip,1,0,51,51,51,51,2946497475,0.01
get,/pubs/ldq/LDQ-45121A4.zip,1,0,67,67,67,67,662156795,0.01
get,/pubs/ldq/LDQ-45121E7.zip,1,0,55,55,55,55,1765246262,0.01
get,/pubs/ldq/LDQ-45122D4.zip,1,0,50,50,50,50,6059069774,0.01
GET,LDQ_Status_newViewer/MapServer/0/query envelope,193,0,4100,5628,69,28515,4442480,1.57
GET,LDQ_Status_newViewer/MapServer/0/query point,11,0,1700,2064,73,5104,2303,0.09
None,Total,229,0,3200,4849,44,28515,79619342,1.86
