Method,Name,# requests,# failures,Median response time,Average response time,Min response time,Max response time,Average Content Size,Requests/s
POST,/arcgis/rest/services/Public/LDQ_Status_newViewer/MapServer/0/,33,0,49,66,43,181,3461,0.23
get,/pubs/ldq/LDQ-42122F4.zip,1,0,76,76,76,76,2936899020,0.01
get,/pubs/ldq/LDQ-42123G2.zip,1,0,66,66,66,66,2772040505,0.01
get,/pubs/ldq/LDQ-43117A3.zip,1,0,69,69,69,69,2115331825,0.01
get,/pubs/ldq/LDQ-43121F5.zip,1,0,68,68,68,68,1260144457,0.01
get,/pubs/ldq/LDQ-43121G2.zip,1,0,57,57,57,57,2024831136,0.01
get,/pubs/ldq/LDQ-44118F4.zip,1,0,53,53,53,53,1559663891,0.01
get,/pubs/ldq/LDQ-44123E7.zip,1,0,54,54,54,54,2965855464,0.01
get,/pubs/ldq/LDQ-45123F2.zip,1,0,55,55,55,55,3476725144,0.01
GET,LDQ_Status_newViewer/MapServer/0/query envelope,322,0,8600,9672,237,40132,3559573,2.2
GET,LDQ_Status_newViewer/MapServer/0/query point,21,0,4400,5826,965,12459,2303,0.14
None,Total,384,0,8000,8436,43,40132,52754783,2.62
