Name,# requests,50%,66%,75%,80%,90%,95%,98%,99%,100%
POST /arcgis/rest/services/Public/LDQ_Status_newViewer/MapServer/0/,33,49,57,64,91,130,160,180,180,181
get /pubs/ldq/LDQ-42122F4.zip,1,76,76,76,76,76,76,76,76,76
get /pubs/ldq/LDQ-42123G2.zip,1,66,66,66,66,66,66,66,66,66
get /pubs/ldq/LDQ-43117A3.zip,1,69,69,69,69,69,69,69,69,69
get /pubs/ldq/LDQ-43121F5.zip,1,68,68,68,68,68,68,68,68,68
get /pubs/ldq/LDQ-43121G2.zip,1,57,57,57,57,57,57,57,57,57
get /pubs/ldq/LDQ-44118F4.zip,1,53,53,53,53,53,53,53,53,53
get /pubs/ldq/LDQ-44123E7.zip,1,54,54,54,54,54,54,54,54,54
get /pubs/ldq/LDQ-45123F2.zip,1,55,55,55,55,55,55,55,55,55
GET LDQ_Status_newViewer/MapServer/0/query envelope,322,8600,10000,12000,13000,17000,21000,27000,29000,40132
GET LDQ_Status_newViewer/MapServer/0/query point,21,4400,8100,8600,8700,10000,12000,12000,12000,12459
None Total,384,8000,9800,11000,12000,16000,21000,26000,29000,40132
