"(PDH-CSV 4.0) (Pacific Daylight Time)(420)","\\GEOWEB3\Memory\% Committed Bytes In Use","\\GEOWEB3\PhysicalDisk(0 C:)\Disk Bytes/sec","\\GEOWEB3\PhysicalDisk(1 G:)\Disk Bytes/sec","\\GEOWEB3\PhysicalDisk(_Total)\Disk Bytes/sec","\\GEOWEB3\Processor(_Total)\% C1 Time","\\GEOWEB3\Processor(_Total)\% C2 Time","\\GEOWEB3\Processor(_Total)\% C3 Time","\\GEOWEB3\Server\Bytes Received/sec","\\GEOWEB3\Server\Bytes Transmitted/sec","\\GEOWEB3\Web Service(_Total)\Current Connections","\\GEOWEB3\Web Service(_Total)\Current NonAnonymous Users","\\GEOWEB3\Web Service(_Total)\Current Anonymous Users","\\GEOWEB3\Web Service(_Total)\Current blocked bandwidth bytes.","\\GEOWEB3\Web Service(_Total)\Bytes Sent/sec","\\GEOWEB3\Web Service(_Total)\Bytes Received/sec"
"06/06/2017 16:01:55.874","29.045449034170272"," "," "," "," "," "," "," "," ","27","0","10","0"," "," "
"06/06/2017 16:01:56.875","29.046168369496122","12286.481611857618","8621014.5976534281","8633301.0792652871","0.14252329626967719","98.391388529264361","0","0","0","27","0","9","0","1130191.3286794135","0"
"06/06/2017 16:01:57.875","29.045841162813606","28669.903572883897","7273964.1064916858","7302634.0100645693","0.049954210307025411","98.585033994560035","0","0","0","26","0","9","0","6911.494611320225","549.95978533364064"
"06/06/2017 16:01:58.875","29.045661978201746","131066.28325814687","7077579.2959399307","7208645.5791980773","0","98.739115001774792","0","0","0","24","0","9","0","0","0"
"06/06/2017 16:01:59.876","29.045521746766383","20479.159300511757","7012064.1444952255","7032543.3037957372","0.046244658741915308","97.487170231838221","0","0","0","24","0","9","0","0","0"
"06/06/2017 16:02:00.876","29.045433452899676","90105.565341354915","6192709.7634603921","6282815.3288017465","0.098368559736502631","97.913132702666687","0","0","0","23","0","9","0","0","0"
"06/06/2017 16:02:01.876","29.057093437062353","304111.22434114962","6225576.5791050158","6529687.8034461653","0.16018164318369116","97.274632327135308","0","0","0","23","0","10","0","0","2193.8789792603188"
"06/06/2017 16:02:02.876","29.0472798334653","8191.4780775626559","6033023.6041248962","6041215.0822024588","0.14164364015956157","97.994801600415144","0","0","0","24","0","9","0","115503.64065153076","548.96502253197002"
"06/06/2017 16:02:03.876","29.04716297393583","12287.411514384428","7012016.1708753798","7024303.5823897645","0.11905620138625934","98.235014561812278","0","0","0","24","0","9","0","0","0"
"06/06/2017 16:02:04.876","29.046256663362829","8191.719764919987","8519388.5555167869","8527580.2752817068","0","98.80738405003278","0","0","0","23","0","9","0","0","0"
"06/06/2017 16:02:05.866","29.04681758910429","41370.212098439108","8915280.7072136272","8956650.9193120655","0.098543979126492515","97.223043393993208","0","0","0","23","0","9","0","0","0"
"06/06/2017 16:02:06.866","29.048217306579495","8191.7758104021568","7864104.7779860701","7872296.553796472","0.38658600651245889","92.771722577970621","0","0","0","38","0","21","0","17094.532162942487","10468.713495983908"
"06/06/2017 16:02:07.867","29.04899117635243","8191.5761518722984","8453706.5887322128","8461898.1648840848","0.95385982918972867","85.415214542720321","0","0","0","87","0","68","0","574798.25881694944","43066.771641233892"
"06/06/2017 16:02:08.867","29.054743262080791","38909.703880759371","8654337.2947415318","8693246.9986222908","0.24875139358973719","88.06568244651865","0","0","0","87","0","69","0","816375.82445376972","1545.9087736341999"
"06/06/2017 16:02:09.867","29.058983964561335","139251.13795780981","9596041.653974954","9735292.7919327635","0.2897859211756697","87.604197746345022","0","0","0","87","0","72","0","0","1618.8504735875324"
"06/06/2017 16:02:10.867","29.054236870786422","16383.572638030882","9404170.6942297257","9420554.2668677568","0.55671620032344293","87.175229718674245","0","0","0","87","0","72","0","0","538.9859406676419"
"06/06/2017 16:02:11.867","29.060596626068019","8191.5376223991525","8277548.7674343428","8285740.3050567424","0.51391023223999044","84.861590597013574","0","0","0","87","0","70","0","2007495.6853719652","0"
"06/06/2017 16:02:12.867","29.06815873606395","12286.880874795455","4521572.1619247282","4533859.0427995231","0.24238210182008052","86.484645617289445","0","0","0","86","0","72","0","540093.80666948587","1617.8526412287638"
"06/06/2017 16:02:13.867","29.070607592425958","8191.1768640088794","6749529.7359433165","6757720.9128073258","0.50110257364506028","85.103217171312167","0","0","0","88","0","72","0","2052.7937135998814","562.94342949670397"
"06/06/2017 16:02:14.868","29.080130345638544","12275.569723729717","6219621.9933563899","6231897.5630801199","1.1995811474812963","75.206841644041091","0","0","0","88","0","70","0","1858844.7286235697","538.45475920331353"
"06/06/2017 16:02:15.868","29.080371855332785","49151.075209999952","6831999.4541899934","6881150.5293999938","2.7572962196901996","77.125903072230386","0","0","0","88","0","71","0","279538.74040739395","1303.9754653694649"
"06/06/2017 16:02:16.869","29.087295133234274","12287.027978208527","7208389.7472156696","7220676.7751938775","0.24785127403733906","90.285405921453702","0","0","0","88","0","68","0","2419815.5693734116","537.9574424052887"
"06/06/2017 16:02:17.869","29.082322111035719","139257.86641500948","8126106.0872758469","8265363.9536908567","0.61302974679101774","86.967833486282473","0","0","0","88","0","67","0","1252933.8147796725","754.96674763996555"
"06/06/2017 16:02:18.869","29.087266567571518","469989.67205052124","7495260.1294331485","7965249.8014836702","0.52035969031189278","85.001538321708509","0","0","0","88","0","68","0","2932547.7241171114","2745.8461827910778"
"06/06/2017 16:02:19.869","29.08989720542381","12286.891382065292","8285460.4219726957","8297747.3133547604","0.73594345304992126","87.072790239867786","0","0","0","88","0","69","0","843526.89050980029","2612.7642562936694"
"06/06/2017 16:02:20.869","29.089515464294209","49150.444691315577","6782761.3674015496","6831911.8120928649","2.6899887212632185","78.74581046922745","0","0","0","86","0","67","0","525670.36577237165","2056.9349106859568"
"06/06/2017 16:02:21.869","29.094992280908706","8191.3975182793865","5058187.9675375214","5066379.3650558004","0.66487154515767144","83.10494361665323","0","0","0","86","0","67","0","524933.39086501056","1077.9207183478002"
"06/06/2017 16:02:22.869","29.107654660146387","70138.841250267244","5242494.411698807","5312633.2529490748","0.62989699493828666","83.20169692332658","0","0","0","86","0","69","0","7964986.1709565148","2912.785763030744"
"06/06/2017 16:02:23.869","29.110661845371418","174589.31231986807","5508011.2080268059","5682600.5203466741","0.22759430460301033","89.457320268541679","0","0","0","88","0","67","0","6803930.258261052","13931.785529923491"
"06/06/2017 16:02:24.869","29.108420739284025","8191.2083853197037","6552966.7082557632","6561157.9166410826","0.44383780467417033","87.657721451957244","0","0","0","86","0","72","0","0","4348.5797445990465"
"06/06/2017 16:02:25.870","29.111248739897199","274424.95903339965","6485849.5914834077","6760274.5505168075","0.56808438625338775","84.013296464258374","0","0","0","86","0","71","0","187467.19012327096","2301.9409387202872"
"06/06/2017 16:02:26.870","29.114996035475542","192501.79262925821","4498193.4841506984","4690695.2767799562","0.83336557967982239","82.444219069979368","0","0","0","91","0","70","0","2155192.7213180927","20825.895710862496"
"06/06/2017 16:02:27.870","29.121921910255466","8191.5551357511058","3145557.1721284245","3153748.7272641757","0.10192826805634672","86.551817885761352","0","0","0","91","0","70","0","6481883.9840027718","1293.9297296950599"
"06/06/2017 16:02:28.870","29.121558347274888","8191.4500567626674","2379616.2414895548","2387807.6915463177","0.59316131192007959","81.084300438009279","0","0","0","91","0","72","0","0","1079.9274977177345"
"06/06/2017 16:02:29.870","29.09338221628045","40957.968326945018","4849423.4499102896","4890381.4182372345","2.5214307918881707","79.691599373551853","0","0","0","91","0","69","0","5867329.9578251326","754.96255094832736"
"06/06/2017 16:02:30.870","29.100492469429089","16382.977170824151","5574307.9823729182","5590690.9595437422","0.19637716133613661","83.631913608447334","0","0","0","91","0","66","0","2285246.3265046775","1076.9327644639657"
"06/06/2017 16:02:31.870","29.100702816582142","57340.861431523059","6839945.6136173941","6897286.4750489173","0.75184413939928063","82.839009785082538","0","0","0","91","0","70","0","0","2695.8524417443182"
"06/06/2017 16:02:32.870","29.078805937637885","16382.942144689374","7011899.2379270522","7028282.1800717413","2.0804880392410361","77.52490385368182","0","0","0","91","0","70","0","6792254.4205100406","1079.9302683266922"
"06/06/2017 16:02:33.874","29.08818586253668","661535.0283187062","7513731.1858420959","8175266.2141608018","0.65400284653333329","83.675220057044314","0","0","0","91","0","70","0","1117883.6548959822","1075.7202081462856"
"06/06/2017 16:02:34.874","29.087289939477412","194547.77071632442","7274038.753519835","7468586.5242361594","0.48169455695649432","87.958066026600335","0","0","0","92","0","70","0","8897430.7070114482","879.94468662811209"
"06/06/2017 16:02:35.874","29.092473308829014","118777.49867958348","7792213.4909623303","7910990.9896419141","0.29806533500153931","86.301103181699972","0","0","0","87","0","71","0","294834.86212935974","1080.9408343937714"
"06/06/2017 16:02:36.874","29.089536239321667","61436.55843797663","8277552.3068767181","8338988.8653146951","0.71559799247006295","84.925187573504076","0","0","0","87","0","70","0","2373.8670203736415","826.95367558930138"
"06/06/2017 16:02:37.874","29.093852251276765","8191.5306170793392","6160031.0240436634","6168222.5546607422","0.65823430305514863","86.620588632307289","0","0","0","87","0","68","0","253754.45961494223","539.96905923130407"
"06/06/2017 16:02:38.874","29.099477089961916","12287.30117960662","6618759.5687480997","6631046.8699277062","0.14653307542978786","90.446703405756637","0","0","0","87","0","70","0","1027571.5585285767","1006.9427317597548"
"06/06/2017 16:02:39.874","29.105159059972596","26622.292368594564","5832329.8973659473","5858952.1897345418","0.14825287679273044","90.189393125094057","0","0","0","87","0","72","0","4471465.1871937905","1617.8962234219503"
"06/06/2017 16:02:40.874","29.115221963899184","12287.332703626658","6356646.7853428582","6368934.1180464849","0.9117647823441174","82.927350183788789","0","0","0","87","0","68","0","7116052.5437877756","0"
"06/06/2017 16:02:41.874","29.119595107179798","143351.60190963649","6815344.7307895748","6958696.3326992113","0.63601571336467899","83.488488544538001","0","0","0","87","0","67","0","6058005.0986695401","537.968483728965"
"06/06/2017 16:02:42.875","29.123700771981841","12287.395752151997","6618810.5118258754","6631097.9075780278","0.64781524212105923","81.741786997780451","0","0","0","87","0","68","0","4721683.8053726032","2160.8937353841525"
"06/06/2017 16:02:43.875","29.131101875514943","114679.61429153559","9043306.7269896641","9157986.3412811998","0.88244922429858519","80.372651443205186","0","0","0","88","0","71","0","879671.67583686486","2740.7995847263796"
"06/06/2017 16:02:44.877","29.135651606528977","28613.464539079734","8443015.8579241689","8471629.3224632498","0.50475214635916255","85.222333630970311","0","0","0","88","0","73","0","7426.8067487385379","1593.7396368900088"
"06/06/2017 16:02:45.877","29.128723134870622","90103.87013514548","9112777.7750317585","9202881.6451669037","0.47450381874786018","86.733050806784476","0","0","0","88","0","73","0","0","0"
"06/06/2017 16:02:46.877","29.132943062323708","65534.094391677747","7212846.263984032","7278380.3583757095","2.5626583694775533","77.548225011993637","0","0","0","88","0","69","0","11001526.096293675","175.99488239952521"
"06/06/2017 16:02:47.877","29.133761079029995","8191.260921376861","7863610.4845217867","7871801.7454431634","1.6837426653596197","76.365599951685653","0","0","0","88","0","69","0","0","0"
"06/06/2017 16:02:48.877","29.132763877711852","73725.919242074509","7995166.3533627475","8068892.2726048222","0.31394443009607009","85.665384111980117","0","0","0","88","0","73","0","0","2158.9390685172375"
"06/06/2017 16:02:49.877","29.13900157970712","222195.45800757699","7536214.6126072202","7758410.0706147971","0.9512702234162177","76.436589217604293","0","0","0","88","0","70","0","81782.383730854432","0"
"06/06/2017 16:02:50.877","29.144356343035284","97785.76955090421","7929350.7790806517","8027136.5486315554","1.5967162179633125","74.101460921847888","0","0","0","87","0","69","0","652352.4351725356","1078.9312555774056"
"06/06/2017 16:02:51.878","29.151225086489685","49149.583008607988","8650326.6095150057","8699476.1925236136","0.67023265515159547","81.769423808492505","0","0","0","87","0","69","0","1482741.0843775645","1079.946892278984"
"06/06/2017 16:02:52.878","29.124718748327449","8191.4185335918246","9420131.3136305995","9428322.7321641911","2.0335251278477338","80.946980623737957","0","0","0","87","0","65","0","2309859.0350614488","1078.9234128107396"
"06/06/2017 16:02:53.878","29.106249748914315","279540.28538808681","9043589.0129948091","9323129.2983828951","2.4193137143738186","80.70689327278825","0","0","0","87","0","66","0","3576907.1036138311","2373.9005176543833"
"06/06/2017 16:02:54.878","29.111357808791372","12287.091023606694","9194839.7826656755","9207126.8736892827","0.19876644617612813","88.667202936452028","0","0","0","87","0","69","0","3963593.780622662","2696.8004956597701"
"06/06/2017 16:02:55.878","29.102614119108583","16383.096260802673","9502195.8312655501","9518578.9275263529","0.20794627333021301","88.2195141534351","0","0","0","87","0","71","0","3345446.4554519961","2156.881020175254"
"06/06/2017 16:02:56.866","29.093553610257004","41455.743418378981","8722288.4152269382","8763744.158645317","1.0228382739953277","81.811689187028364","0","0","0","87","0","67","0","9164912.4807763305","1090.0350503318889"
"06/06/2017 16:02:57.866","29.102471290794785","139255.12731856515","9371050.9207316786","9510306.0480502434","2.2585491375746098","77.77763668296312","0","0","0","82","0","69","0","558940.38694868935","2370.84894066175"
"06/06/2017 16:02:58.866","29.106457499188931","73723.712505943564","8912377.6896073986","8986101.4021133427","0.49970228438615338","83.755296263281593","0","0","0","81","0","68","0","13358629.11233422","1077.9373112170024"
"06/06/2017 16:02:59.867","29.094106745363163","25086.616149354093","9698792.9863951821","9723879.6025445368","0.69151019972295191","84.320629399367306","0","0","0","81","0","66","0","7194252.1441459768","1617.9107513414749"
"06/06/2017 16:03:00.867","29.097363230917729","8191.5201091220852","8068647.3074852536","8076838.8275943752","0.85799201731162311","81.5512768441844","0","0","0","81","0","67","0","1170548.4247534384","1615.9053340260364"
"06/06/2017 16:03:01.867","29.098640895106602","61436.637248060426","9833957.7355062049","9895394.3727542665","1.0475776429313057","85.885868530555626","0","0","0","82","0","64","0","2450197.8877167054","3426.8124324398286"
"06/06/2017 16:03:02.867","29.114084531145672","40956.444704414491","9895077.0405865405","9936033.4852909558","0.61246956599990998","88.702229243636978","0","0","0","85","0","61","0","3749035.5584323294","6102.4702644297276"
"06/06/2017 16:03:03.867","29.101518236409994","69630.005065434583","9903844.2498953417","9973474.2549607772","0.96392828071226544","83.178009668679394","0","0","0","85","0","67","0","30899.114724866853","6241.8211686931681"
"06/06/2017 16:03:04.867","29.090312705973037","20478.038475220976","9632869.2987439465","9653347.3372191675","3.2716265653665388","73.721899793344221","0","0","0","88","0","68","0","908931.9363626414","7228.307623895138"
"06/06/2017 16:03:05.867","29.10257256905366","147452.02763886462","9649916.0310323611","9797368.0586712267","2.5417020251605491","76.497762803474373","0","0","0","88","0","67","0","1020087.518817955","13922.62492415305"
"06/06/2017 16:03:06.868","29.107205400177538","16366.713150545194","10053253.552722385","10069620.265872931","0.27770016992041979","88.498122644565456","0","0","0","88","0","70","0","899676.74344702554","2680.1691517891086"
"06/06/2017 16:03:07.868","29.097500865474657","122359.05274855805","8191401.0208239704","8313760.0735725285","1.001242654360909","82.454746303733202","0","0","0","88","0","69","0","11437611.648418201","1078.9211061363603"
"06/06/2017 16:03:08.869","29.101035217021519","12287.57439315422","7216902.0269125793","7229189.6013057334","0.92867515257527433","81.305650592048167","0","0","0","88","0","64","0","5989528.5396609688","1079.9625931483201"
"06/06/2017 16:03:09.869","29.098448726102582","8191.5096011917894","10026407.75185875","10034599.261459941","0.62674735998097819","84.369431582879542","0","0","0","88","0","68","0","633040.10196573427","2697.8384892596982"
"06/06/2017 16:03:10.869","29.103512639046286","12287.28541765726","9305570.8229724318","9317858.1083900891","0.67489211744964628","86.758268095861737","0","0","0","88","0","69","0","6546871.2585715596","2696.843161736786"
"06/06/2017 16:03:11.869","29.106226377008422","53245.199452162808","6782619.2532908926","6835864.4527430562","0.59296204654946538","88.258175613074741","0","0","0","88","0","70","0","2937163.5134545513","1620.9147444402777"
"06/06/2017 16:03:12.869","29.107013231173521","102392.16250688949","6094381.5124100633","6196773.6749169528","0.87033686508148789","84.860624016054103","0","0","0","88","0","70","0","1730162.5666490074","539.9586694699251"
"06/06/2017 16:03:13.869","29.11220179428199","139257.44958903428","7863950.0944395829","8003207.5440286174","0.64071791923408616","83.69337449536927","0","0","0","88","0","70","0","1469155.8936440782","1079.9492012017249"
"06/06/2017 16:03:14.869","29.122420510914537","8191.5656437982216","6880915.1407905063","6889106.7064343039","1.9909810371807242","82.210955740089886","0","0","0","88","0","70","0","2011233.3547359759","754.95996839204804"
"06/06/2017 16:03:15.869","29.122578920498931","69627.891155043078","10554769.147443883","10624397.038598927","0.94325029999011123","84.72978592589682","0","0","0","87","0","69","0","7412523.5760078607","1795.8940216345557"
"06/06/2017 16:03:16.869","29.114702588212648","12286.970187161889","11566134.602848392","11578421.573035553","0.44504766239490234","87.736892141484162","0","0","0","87","0","67","0","7097030.1737186601","1617.8644012718048"
"06/06/2017 16:03:17.870","29.106618505651756","8191.6952452626883","10681970.599822545","10690162.295067808","0.28333775616334861","85.2842146563721","0","0","0","87","0","70","0","15705690.702916043","2877.8929340656759"
"06/06/2017 16:03:18.870","29.129873552016296","12287.406260302458","11468245.842948962","11480533.249209264","2.1165066017407996","80.644935832379275","0","0","0","87","0","72","0","0","1078.947864165556"
"06/06/2017 16:03:19.870","29.118353799288982","8191.5761518722984","12516728.360060873","12524919.936212745","0.88490894339866388","81.438649706203549","0","0","0","86","0","71","0","2324396.7311794115","538.97211253163687"
"06/06/2017 16:03:20.870","29.123145039997251","8191.4955906599989","10354050.426594239","10362241.922184898","0.9505090755908786","76.717507066925293","0","0","0","86","0","68","0","5283208.6748171616","754.95351207864974"
"06/06/2017 16:03:21.870","29.131205750652249","176117.45642562347","11144548.81242143","11320666.268847052","0.96770948757651887","81.39138510382115","0","0","0","86","0","71","0","3773.7740765256117","3414.7955673913525"
"06/06/2017 16:03:22.870","29.12708450457961","8191.5236117715067","9321953.8701959737","9330145.3938077465","0.74514333982957781","85.660607671327824","0","0","0","86","0","70","0","306385.18178926082","539.96859745564132"
"06/06/2017 16:03:23.870","29.147436240856422","32765.772206370497","11734242.171406435","11767007.943612805","1.9304237543359919","79.560005567347503","0","0","0","86","0","67","0","4462185602.3582048","1764.8800031812721"
"06/06/2017 16:03:24.870","29.144208320964616","8191.4885854120757","12135690.339287991","12143881.827873403","0.52907979071981615","86.869824214004439","0","0","0","87","0","64","0","3690925.5665253047","1085.9322026071184"
"06/06/2017 16:03:25.871","29.149308590206374","8191.6216871714969","9530951.8330240361","9539143.4547112081","0.38833565206853377","89.49177003986145","0","0","0","87","0","72","0","0","4314.80072999817"
"06/06/2017 16:03:26.871","29.155260635574049","45052.570766911274","9370934.7195175439","9415987.2902844567","0.20725581324659414","90.118443177681158","0","0","0","86","0","70","0","4380930.5399618419","537.95905257009645"
"06/06/2017 16:03:27.871","29.135745094152554","8191.7688046749463","8748809.0833928417","8757000.8521975167","1.3367962684291306","84.468096168940576","0","0","0","86","0","69","0","2902745.0761679881","1292.9635088433479"
"06/06/2017 16:03:28.871","29.130792846981457","8191.4325438600235","10616096.576842591","10624288.00938645","0.71167751657582889","79.020141565592553","0","0","0","86","0","64","0","8733978.9593114089","1294.9102959349036"
"06/06/2017 16:03:29.871","29.134472623720548","143352.21487564433","11468177.190051548","11611529.404927192","0.5501366792682163","82.578065264688036","0","0","0","86","0","66","0","12515249.326006616","3238.8241070187782"
"06/06/2017 16:03:30.871","29.140894704084534","8191.5166064756568","7601727.4108094098","7609918.927415885","0.78469975952765425","81.787744409392914","0","0","0","86","0","69","0","2141.873604867048","2374.8598560033797"
"06/06/2017 16:03:31.871","29.149869515947834","8191.3659955129078","8559977.4653109889","8568168.8313065022","0.43234915573928501","86.085086393840086","0","0","0","86","0","73","0","0","2159.83283084813"
"06/06/2017 16:03:32.871","29.156460393409944","12287.605918576177","11079324.669916186","11091612.275834762","0.26185020144707533","87.041754648321017","0","0","0","85","0","72","0","1685275.9507449535","0"
"06/06/2017 16:03:33.871","29.169374669855596","20478.712706981518","9502122.6960394233","9522601.4087464046","2.1404329940324889","79.697022963549998","0","0","0","85","0","70","0","1462218.0848899484","0"
"06/06/2017 16:03:34.872","29.176544651208193","8191.527114423925","9371107.01890097","9379298.5460153949","0.29917556489248087","85.192154383030513","0","0","0","85","0","70","0","2822173.0798357865","1078.9377144120381"
"06/06/2017 16:03:35.872","29.18014132783744","8191.5060985543496","9698743.2206883505","9706934.726786904","0.19363765421470364","88.52004478683159","0","0","0","85","0","72","0","0","1080.9348257491763"
"06/06/2017 16:03:36.872","29.18587523541677","8191.5796545696494","12320135.800472753","12328327.380127322","0.074261422805665944","90.257575250058622","0","0","0","84","0","71","0","7318391.4616376646","536.97244561815205"
"06/06/2017 16:03:37.872","29.189469315167582","176117.00458635963","12354812.658947764","12530929.663534123","0.56371539821536454","85.33220092977345","0","0","0","84","0","71","0","14460.097220903812","561.96491516132653"
"06/06/2017 16:03:38.872","29.192177859372855","12287.30117960662","10550695.946222218","10562983.247401824","0.73847507536633283","83.627282862470821","0","0","0","84","0","69","0","789024.12552824023","1078.9386371090122"
"06/06/2017 16:03:39.872","29.201282515157782","20478.887839377763","13368617.981545804","13389096.869385181","0.85624041923924243","81.768610310620872","0","0","0","85","0","70","0","948068.51261088112","2371.8711892091824"
"06/06/2017 16:03:40.872","29.207229366768594","119801.13527478534","14224592.916558273","14344394.051833058","0.3152835847459618","86.338797868846157","0","0","0","85","0","72","0","8927762.4302579854","5371.6921966491955"
"06/06/2017 16:03:41.872","29.202838045338954","180725.95334931402","12490057.67113276","12670783.624482075","1.15991602969857","82.800626527636055","0","0","0","96","0","69","0","8771344.3963572271","7996.5554672808084"
"06/06/2017 16:03:42.872","29.209813260809099","49148.994559730716","9080276.7449102495","9129425.7394699808","0.39194492633347161","84.120796108447522","0","0","0","96","0","70","0","429663.72624452086","1617.9010660328022"
"06/06/2017 16:03:43.873","29.217120876718621","90106.33591071867","9375154.677256139","9465261.0131668579","0.4255602945575957","81.784937519297756","0","0","0","96","0","71","0","6918.5650986135306","930.94148096678668"
"06/06/2017 16:03:44.873","29.228245903924172","16383.033212951314","12057912.444732167","12074295.477945119","0.72043686158617293","77.743668380668879","0","0","0","96","0","72","0","51517.95984890531","1078.9363303695354"
"06/06/2017 16:03:45.873","29.238843764807886","151543.83481096392","11468182.093802674","11619725.928613639","0.38826515537455425","83.364611387384755","0","0","0","96","0","72","0","0","0"
"06/06/2017 16:03:46.873","29.251103627888508","8191.5341197377475","10878357.311011728","10886548.845131466","2.5669368558110661","76.74645555477565","0","0","0","96","0","68","0","816206.57957010437","539.96929011943155"
"06/06/2017 16:03:47.873","29.257993146370374","12287.017470705066","13372370.680617347","13384657.698088052","0.19520714124376035","88.201961550302457","0","0","0","95","0","68","0","2618404.6197129618","539.95682244309376"
"06/06/2017 16:03:48.873","29.26468270521293","12287.443038970614","14548332.558141205","14560620.001180178","0.049374381195419953","89.827207663767865","0","0","0","96","0","72","0","1502966.8740298825","3212.8543688324039"
"06/06/2017 16:03:49.873","29.269601192964402","8191.3589904866394","14023606.591713127","14031797.950703613","0.24465122901546776","89.949831899768583","0","0","0","96","0","72","0","0","0"
"06/06/2017 16:03:50.873","29.260055067845915","8191.8458683333256","12295960.648368321","12304152.494236656","0.67192474442862404","85.019277840881827","0","0","0","96","0","72","0","5934668.3377035223","755.98577593505786"
"06/06/2017 16:03:51.874","29.241715912354415","8191.4850827926066","11074887.831935605","11083079.317018397","1.8858504870033128","77.546323607932038","0","0","0","96","0","72","0","0","0"
"06/06/2017 16:03:52.874","29.242619626048988","61435.849156321114","12352701.403697632","12414137.252853954","0.51058107894348992","80.945828851350555","0","0","0","96","0","71","0","10686895.951959349","2512.8302234673661"
"06/06/2017 16:03:53.874","29.249106628373788","139258.10460240132","13172178.364744784","13311436.469347186","0.41450249801372768","82.130497844946973","0","0","0","96","0","73","0","0","1079.9542808665085"
"06/06/2017 16:03:54.874","29.249311781769972","279531.4403112841","14760898.327939454","15040429.768250739","0.21043550530718225","83.963666629204354","0","0","0","96","0","72","0","6509186.24582888","378.97212639500583"
"06/06/2017 16:03:55.874","29.254902861035504","20478.826542698349","15662206.539855696","15682685.366398394","0.25234065278208145","85.314997865748211","0","0","0","96","0","71","0","2108856.1604267741","0"
"06/06/2017 16:03:56.874","29.248358727385181","55293.446388407603","10419742.786082145","10475036.232470552","0.53935818955147741","85.116025703454383","0","0","0","96","0","73","0","1314.9392722937646","1295.9401497283034"
"06/06/2017 16:03:57.874","29.248132798961539","40957.793192152407","11734407.749551665","11775365.542743817","0.81387705524029152","79.733794400679443","0","0","0","95","0","70","0","44756.588512879629","0"
"06/06/2017 16:03:58.874","29.251461997112223","81914.500567626674","11035931.088973504","11117845.58954113","0.55847527271589226","82.076897287604368","0","0","0","96","0","70","0","3474503.7348492849","1734.8835264261752"
"06/06/2017 16:03:59.874","29.256518119420623","29182.252954245749","10419600.212715955","10448782.465670202","0.43914967344742295","87.083650213685516","0","0","0","95","0","69","0","578267.38102885918","826.95049318671988"
"06/06/2017 16:04:00.875","29.265952578766502","8191.4885854120757","11476275.508162318","11484466.99674773","1.9833193399607627","79.503263770423501","0","0","0","95","0","72","0","12789512.519576479","2086.8697116400149"
"06/06/2017 16:04:01.875","29.273602982629143","139256.2586714261","10747306.551583001","10886562.810254429","0.71945697466512359","84.364494337353463","0","0","0","95","0","69","0","2860315.9935313328","1078.940021157433"
"06/06/2017 16:04:02.875","29.270925600965064","79867.28691313765","11758922.088595806","11838789.375508944","2.3876632698270268","75.464213697632445","0","0","0","95","0","71","0","0","1075.9365073935312"
"06/06/2017 16:04:03.875","29.18935505251654","69626.968220338065","9702722.8067047577","9772349.774925096","2.9399954325353068","80.139017707124722","0","0","0","95","0","67","0","462787.55541568657","1078.9220288049285"
"06/06/2017 16:04:04.875","29.193299710855765","12287.57964737998","11992677.735842861","12004965.31549024","0.46501731353837611","87.091992477252319","0","0","0","95","0","68","0","11961977.786074452","2435.9166683770859"
"06/06/2017 16:04:05.875","29.20009833859249","20478.817786059812","12737824.662929203","12758303.480715264","1.2237702454379711","85.266682544853381","0","0","0","95","0","68","0","7049953.0159240561","1621.9063695795419"
"06/06/2017 16:04:06.875","29.192107743655171","8191.5306170793392","11631973.476252662","11640165.006869741","0.34885970670387567","87.554567447459817","0","0","0","95","0","67","0","9826496.9318695907","1077.9382330580479"
"06/06/2017 16:04:07.875","29.178616960197463","18942.784954576902","12516573.15052692","12535515.935481498","0.43682958986532955","87.933292498045716","0","0","0","95","0","70","0","2801215.3218869804","2157.8615884700671"
"06/06/2017 16:04:08.875","29.173669906783228","69628.397290914538","12914019.803426679","12983648.200717593","0.21087564386313382","85.677654230936326","0","0","0","95","0","68","0","7892947.6034958642","1832.9051619118559"
"06/06/2017 16:04:09.876","29.165736443171429","139255.06777418696","11861255.184530746","12000510.252304934","0.64775466613232879","82.044738196947691","0","0","0","95","0","70","0","15990588.317071438","2695.8270817957837"
"06/06/2017 16:04:10.877","29.159137775074022","8183.3985235281198","10544308.997565983","10552492.396089511","0.53546253090801288","83.427881170190304","0","0","0","95","0","69","0","53582.679858828713","175.81520265392444"
"06/06/2017 16:04:11.877","29.161287990416273","20478.852812658875","10644907.692020085","10665386.544832744","0.99979592328515321","78.946702181281111","0","0","0","95","0","69","0","2440482.2887098971","2157.8791196151296"
"06/06/2017 16:04:12.877","29.167219260756482","8191.4220361543821","11533522.22690537","11541713.648941524","0.96830816040747292","80.379246197064234","0","0","0","95","0","68","0","536274.16199390008","930.93431587643192"
"06/06/2017 16:04:13.877","29.171337909950694","109562.42472848616","11509174.335964341","11618736.760692827","2.0338634616794069","82.328125239034705","0","0","0","95","0","69","0","1695124.740676126","1618.9176186059717"
"06/06/2017 16:04:14.877","29.184714430757364","16383.075244798305","9526758.2548502143","9543141.3300950117","0.25824017325998844","90.218109808317138","0","0","0","95","0","71","0","0","1077.9391549006696"
"06/06/2017 16:04:15.880","29.182351271383638","8167.0051076764357","13916576.703480646","13924743.708588323","0.34382869854108566","89.540719027653637","0","0","0","96","0","71","0","2888282.491645724","1425.6368779269169"
"06/06/2017 16:04:16.880","29.191871427717796","19966.668050920947","12590264.120724306","12610230.788775226","0.2388226309264958","89.105978454869074","0","0","0","98","0","72","0","1821.8784649828708","1435.9042127965984"
"06/06/2017 16:04:17.881","29.19750146015982","139256.37776227031","11337107.460175417","11476363.837937687","0.34307010094725987","90.020720590195353","0","0","0","96","0","73","0","13378.267736682948","1078.9409438583527"
"06/06/2017 16:04:18.881","29.204403963033855","45054.015604856009","12420572.938338714","12465626.953943569","0.46478613128738377","86.996887060789646","0","0","0","96","0","72","0","1892386.6502068948","321.98581819876676"
"06/06/2017 16:04:19.881","29.190544422838705","8191.4465541761492","11664619.893146835","11672811.339701012","0.96408951534154197","83.683169908728459","0","0","0","96","0","70","0","3747908.7767814919","0"
"06/06/2017 16:04:20.881","29.189661484171598","12287.022724454551","13188071.05758122","13200358.080305673","0.75028176686421677","77.95666229651394","0","0","0","96","0","69","0","276765.98680471408","1619.87115996227"
"06/06/2017 16:04:21.881","29.166401244050196","24063.228257211678","14384690.662013177","14408753.89027039","2.3956764137535491","72.639924520619743","0","0","0","98","0","69","0","7712332.6542555541","1588.9490400893185"
"06/06/2017 16:04:22.881","29.177560030675366","16382.984176069078","13802664.168338198","13819047.152514268","0.49011383295474337","80.436871934476301","0","0","0","97","0","71","0","933497.11868226121","2160.8660158987595"
"06/06/2017 16:04:23.881","29.179531061405761","120314.1862987949","9973278.0812788289","10093592.267577624","0.73418461432935345","83.373863619661037","0","0","0","99","0","73","0","6743995.1234447705","1893.9084844574265"
"06/06/2017 16:04:24.881","29.178292350393381","283631.14122019085","11009393.611550512","11293024.752770703","2.4932872612245771","76.033217833097723","0","0","0","98","0","70","0","116261.08954545474","0"
"06/06/2017 16:04:25.881","29.186641314554407","151538.84540633362","10222728.598221857","10374267.44362819","0.51542876706247298","83.742411401525501","0","0","0","98","0","69","0","3472429.5696974131","1078.9063436538877"
"06/06/2017 16:04:26.882","29.190414578917075","8191.8073363228923","10776322.550932765","10784514.358269088","0.33755189039157479","89.725929942509481","0","0","0","98","0","69","0","3536987.8133416688","1618.9619235237749"
"06/06/2017 16:04:27.882","29.195314888519512","8191.2399068731311","11873202.245012604","11881393.484919477","0.39001413433780191","89.925714735947054","0","0","0","98","0","72","0","2834340.9918191168","2372.779821656487"
"06/06/2017 16:04:28.882","29.180195862284524","122877.26767525592","9862948.6854005419","9985825.9530757982","0.56521641315352023","83.235745978577413","0","0","0","98","0","71","0","102138.72882176364","538.98801494924271"
"06/06/2017 16:04:29.882","29.185270162741954","74746.821962722708","9436530.2905267477","9511277.1124894693","0.98091719452262982","81.450653174884891","0","0","0","98","0","71","0","0","0"
"06/06/2017 16:04:30.882","29.186298526601295","8191.6392008829107","12393950.110935844","12402141.750136727","0.39401397916723324","82.804098481297387","0","0","0","98","0","72","0","3671220.3018329958","1547.931821651214"
"06/06/2017 16:04:31.882","29.192736188235873","8191.4255387199337","14293525.600970114","14301717.026508834","0.29714606591927206","87.641721315425784","0","0","0","98","0","73","0","0","536.96234305329642"
"06/06/2017 16:04:32.882","29.199005052772335","12799.288480829604","12479818.240348097","12492617.528828926","0.27716787624314343","89.816930217787757","0","0","0","98","0","72","0","4056338.5060115675","715.96019939640598"
"06/06/2017 16:04:33.882","29.189222611716474","266224.97272797243","10804638.123944482","11070863.096672455","0.28132739415501745","87.886203988957675","0","0","0","98","0","73","0","0","538.96957745033478"
"06/06/2017 16:04:34.882","29.188646104704425","298982.0463422258","11860986.386398437","12159968.432740662","0.76857961503727157","82.271714846334078","0","0","0","98","0","73","0","19591.2993431053","288.97491502870577"
"06/06/2017 16:04:35.883","29.169652535847895","24575.379974317824","13172403.666234355","13196979.046208672","0.63848848928919955","81.188156926424242","0","0","0","98","0","67","0","17228582.33068772","0"
"06/06/2017 16:04:36.883","29.152957204404274","50685.334093885751","7306879.6786660347","7357565.0127599202","0.8165046322589522","82.698670795251118","0","0","0","77","0","52","0","462399875.06621897","0"
"06/06/2017 16:04:37.883","29.156377293300096","16382.977170824151","8789467.2521471567","8805850.2293179817","0.44232855718879893","83.417738517010477","0","0","0","76","0","51","0","1404.9122879033162","438.97259387156998"
"06/06/2017 16:04:38.883","29.163194099185851","87034.529004671451","7376432.317054742","7463466.8460594136","0.35338996091742803","85.859932069696498","0","0","0","75","0","50","0","1404.9116871732926","0"
"06/06/2017 16:04:39.883","29.165944193446048","169461.1302693231","5504670.9143678602","5674132.0446371837","0.47751427408421432","85.419071594344942","0","0","0","75","0","50","0","0","393.9747293128853"
"06/06/2017 16:04:40.883","29.154863313173852","2281351.0317978049","6762137.4389554318","9043488.4707532357","1.8282695661729336","82.287548703144267","0","0","0","81","0","55","0","621158.06321248307","3925.7918356386494"
"06/06/2017 16:04:41.883","29.173192081151623","1642425.064380883","7339715.0009240462","8982140.0653049294","0.59744153320029525","79.995152555517137","0","0","0","77","0","46","0","2560149.4282675879","3092.8664204540355"
"06/06/2017 16:04:42.883","29.179492108229272","20478.677680861718","7822854.8740891768","7843333.551770038","0.59251984565027505","80.572970160333014","0","0","0","75","0","43","0","718427.61074606655","231.98502060351166"
"06/06/2017 16:04:43.884","29.197119719030219","99322.308732086982","8597011.3826247659","8696333.6913568527","2.2271774380785221","84.322467832147822","0","0","0","71","0","41","0","0","0"
"06/06/2017 16:04:44.884","29.186241395275776","93177.186611872661","7573462.2063155621","7666639.3929274352","0.95779985301690307","79.556910955240141","0","0","0","70","0","40","0","2809.7945396136911","459.96636591540852"
"06/06/2017 16:04:45.885","29.189780940579503","20458.627398630739","8379853.7824791512","8400312.4098777827","0.75462866450194677","82.718477169803379","0","0","0","67","0","36","0","1403.5337644080171","214.77562942898481"
"06/06/2017 16:04:46.885","29.189388811936169","99321.544283099865","7929340.6075085085","8028662.1517916089","1.6452701358263255","79.324685931243536","0","0","0","63","0","31","0","0","0"
"06/06/2017 16:04:47.885","29.191816893270712","20478.940379680746","6799008.2060540076","6819487.1464336887","0.69476003312018786","82.826566662177186","0","0","0","57","0","27","0","0","0"
"06/06/2017 16:04:48.885","29.19773517921876","77819.906891622566","7667308.7211114438","7745128.6280030664","0.15072247097662542","89.107176835334045","0","0","0","52","0","23","0","0","0"
"06/06/2017 16:04:49.885","29.203593736962858","200685.72095499246","6331839.2774779247","6532524.9984329175","0.049694155967258249","90.905739485036563","0","0","0","52","0","23","0","0","0"
"06/06/2017 16:04:50.885","29.210659843178149","17919.486597722134","7012151.0983543536","7030070.584952075","0.34324155694562208","88.550492344857375","0","0","0","52","0","23","0","0","0"
"06/06/2017 16:04:51.885","29.215079730270549","16383.061234158678","6946417.9632832799","6962801.0245174384","0.24492161358498549","90.488372397639111","0","0","0","52","0","23","0","5570.6807944029542","830.95238559484017"
"06/06/2017 16:04:52.886","29.20046709532993","8191.1908734504077","6839644.3793310905","6847835.5702045411","0.80949407495211811","84.712961514060581","0","0","0","49","0","20","0","0","0"
"06/06/2017 16:04:53.886","29.191902590258991","119294.26557345924","7012250.0484725228","7131544.3140459815","0.95471183114953073","81.714011802462778","0","0","0","46","0","16","0","41149.40172636004","758.9889650135425"
"06/06/2017 16:04:54.886","29.19856358343878","293858.46999631857","8064213.6226167418","8358072.09261306","0.82542293026340097","77.875291865676601","0","0","0","45","0","15","0","0","0"
"06/06/2017 16:04:55.886","29.190357447591552","20479.649700158388","7733115.7267798074","7753595.3764799656","4.201151151531489","76.595681921897523","0","0","0","42","0","12","0","0","0"
"06/06/2017 16:04:56.886","29.188879823763365","10239.426406329438","7417440.4887450449","7427679.9151513744","0.37111665357486245","90.648242285301066","0","0","0","40","0","10","0","0","0"
"06/06/2017 16:04:57.886","29.182668090552422","157681.5704716467","7298404.1189733623","7456085.6894450085","2.1382385431473261","89.593343822766442","0","0","0","40","0","10","0","0","0"
"06/06/2017 16:04:58.887","29.184028854851142","86436.297675062335","8445184.3030214757","8531620.6006965376","0.036169659978226285","94.685607142354129","0","0","0","40","0","10","0","0","0"
"06/06/2017 16:04:59.887","29.109150462123605","122874.11514384428","8982097.8170150165","9104971.9321588613","1.8716647585527664","92.743004554476244","0","0","0","39","0","9","0","0","0"
"06/06/2017 16:05:00.887","29.110028207033849","8191.4640671386996","9514385.5139815994","9522576.9780487381","0.27869758747057721","96.534263065205522","0","0","0","34","0","9","0","0","0"
"06/06/2017 16:05:01.888","29.109937316288704","27112.615142199786","9991766.0180650242","10018878.633207222","0.2492225594922074","97.753480173993211","0","0","0","36","0","10","0","485053.6371725389","833.28128790516735"
"06/06/2017 16:05:02.874","29.11049564515173","89919.528165422016","8461791.4366073422","8551710.9647727646","0","98.746357398687039","0","0","0","36","0","10","0","0","0"
"06/06/2017 16:05:03.874","29.109734759770955","81916.07676256285","6029023.2497246256","6110939.3264871892","0.1029280706366132","98.28305899346266","0","0","0","36","0","10","0","0","0"
"06/06/2017 16:05:04.874","29.109324452978598","57340.763356794065","5283541.7664474528","5340882.5298042474","0.051414061675876435","98.34111160161001","0","0","0","35","0","9","0","917708.19925940502","0"
"06/06/2017 16:05:05.874","29.109217980962853","154101.85187041247","7077421.927762731","7231523.7796331439","0.095179054408742997","98.414112377076634","0","0","0","35","0","9","0","0","0"
"06/06/2017 16:05:06.874","29.108524614421334","8191.5691464865859","8191569.146486586","8199760.715633072","0.14454330524824383","97.208222450306991","0","0","0","35","0","9","0","0","0"
"06/06/2017 16:05:07.874","29.10908294328436","8191.5341197377475","6909559.0299987895","6917750.5641185278","0.049884243358316448","98.438090244385805","0","0","0","35","0","9","0","0","0"
"06/06/2017 16:05:08.875","29.108392173621269","128976.73391596509","7795927.0278094457","7924903.7617254108","0","98.629494378905804","0","0","0","35","0","9","0","0","0"
"06/06/2017 16:05:09.875","29.108501242515437","31230.370724990917","7110285.0594864562","7141515.4302114472","0.15514208108963415","98.115347677343266","0","0","0","35","0","9","0","0","0"
"06/06/2017 16:05:10.875","29.109116702703979","8190.9352086853605","5713177.3080580384","5721368.2432667241","0.096782946844765946","98.541147049889815","0","0","0","35","0","9","0","0","0"
"06/06/2017 16:05:11.875","29.107062571863739","8191.7057536692701","7208701.0632289574","7216892.7689826265","0.29322627897791753","95.520185178704452","0","0","0","36","0","10","0","0","2664.9042765537847"
"06/06/2017 16:05:12.875","29.105873201541581","20478.616385440371","8039904.7929238901","8060383.4093093304","0.11792637950316738","97.933048732871356","0","0","0","30","0","9","0","540032.51331388659","0"
"06/06/2017 16:05:13.875","29.105239563204009","211930.02795873527","8911299.3398687523","9123229.3678274881","0.096225356686152674","98.350432454248477","0","0","0","30","0","9","0","0","0"
"06/06/2017 16:05:14.875","29.105938123502394","81913.51985472352","8588632.5567677598","8670546.0766224843","0","98.226976202667629","0","0","0","30","0","9","0","0","0"
"06/06/2017 16:05:15.876","29.106376995957518","23541.47013772593","8057324.0401816741","8080865.5103194006","0.2363330624007241","97.109540199509283","0","0","0","30","0","9","0","0","0"
"06/06/2017 16:05:16.876","29.107275515895221","8190.3153754431896","8386882.9444538262","8395073.2598292697","0.24008636551169754","97.094401147168156","0","0","0","30","0","9","0","0","0"
"06/06/2017 16:05:17.877","29.106314670875133","19434.865823377419","7737122.3730540425","7756557.2388774194","0.096222480999730908","97.632455494230754","0","0","0","30","0","9","0","0","0"
"06/06/2017 16:05:18.877","29.106296492726102","65531.432330307856","7339520.4209944792","7405051.8533247877","0.1230957947452864","97.913170820087359","0","0","0","30","0","9","0","2125.8518239476698","828.94222109718646"
"06/06/2017 16:05:19.878","29.10620560198096","133113.11246792486","6540973.5572700305","6674086.6697379556","0.098318644196595306","98.735756020179664","0","0","0","30","0","9","0","0","0"
"06/06/2017 16:05:20.878","29.106415949134007","15871.104143398357","5498057.6579340305","5513928.7620774293","0","98.453828582798693","0","0","0","30","0","9","0","0","0"
"06/06/2017 16:05:21.878","29.106512033636019","151541.04847955934","4194000.9092721287","4345541.9577516876","0.19206783537179811","98.197508007575934","0","0","0","30","0","9","0","0","0"
"06/06/2017 16:05:22.878","29.106029014247543","24062.652054874179","6393497.8481121017","6417560.5001669759","0.09824869157559965","97.140429136606372","0","0","0","31","0","10","0","0","440.97529738196118"
"06/06/2017 16:05:23.879","29.106062773667162","85422.067392325","8188242.2444092128","8273664.3118015379","0","98.466241672728827","0","0","0","31","0","10","0","0","0"
"06/06/2017 16:05:24.879","29.105961495408287","61436.400818415634","8748543.4765423872","8809979.8773608021","0","98.458307294661125","0","0","0","31","0","10","0","0","0"
