Name,# requests,50%,66%,75%,80%,90%,95%,98%,99%,100%
/arcgis/rest/services/Public/LDQ_Status_newViewer/MapServer/0/,0,N/A,N/A,N/A,N/A,N/A,N/A,N/A,N/A,N/A
/pubs/ldq/LDQ-42117H3.zip,0,N/A,N/A,N/A,N/A,N/A,N/A,N/A,N/A,N/A
/pubs/ldq/LDQ-42120F7.zip,0,N/A,N/A,N/A,N/A,N/A,N/A,N/A,N/A,N/A
/pubs/ldq/LDQ-42121C8.zip,0,N/A,N/A,N/A,N/A,N/A,N/A,N/A,N/A,N/A
/pubs/ldq/LDQ-42122A3.zip,0,N/A,N/A,N/A,N/A,N/A,N/A,N/A,N/A,N/A
/pubs/ldq/LDQ-42122B3.zip,0,N/A,N/A,N/A,N/A,N/A,N/A,N/A,N/A,N/A
/pubs/ldq/LDQ-42122C2.zip,0,N/A,N/A,N/A,N/A,N/A,N/A,N/A,N/A,N/A
/pubs/ldq/LDQ-42122F5.zip,0,N/A,N/A,N/A,N/A,N/A,N/A,N/A,N/A,N/A
/pubs/ldq/LDQ-42123A6.zip,0,N/A,N/A,N/A,N/A,N/A,N/A,N/A,N/A,N/A
/pubs/ldq/LDQ-42123B5.zip,0,N/A,N/A,N/A,N/A,N/A,N/A,N/A,N/A,N/A
/pubs/ldq/LDQ-42123C5.zip,0,N/A,N/A,N/A,N/A,N/A,N/A,N/A,N/A,N/A
/pubs/ldq/LDQ-42123H6.zip,0,N/A,N/A,N/A,N/A,N/A,N/A,N/A,N/A,N/A
/pubs/ldq/LDQ-43117A2.zip,0,N/A,N/A,N/A,N/A,N/A,N/A,N/A,N/A,N/A
/pubs/ldq/LDQ-43118H7.zip,0,N/A,N/A,N/A,N/A,N/A,N/A,N/A,N/A,N/A
/pubs/ldq/LDQ-43121F4.zip,0,N/A,N/A,N/A,N/A,N/A,N/A,N/A,N/A,N/A
/pubs/ldq/LDQ-43121H5.zip,0,N/A,N/A,N/A,N/A,N/A,N/A,N/A,N/A,N/A
/pubs/ldq/LDQ-43123B1.zip,0,N/A,N/A,N/A,N/A,N/A,N/A,N/A,N/A,N/A
/pubs/ldq/LDQ-43123F1.zip,0,N/A,N/A,N/A,N/A,N/A,N/A,N/A,N/A,N/A
/pubs/ldq/LDQ-43123G7.zip,0,N/A,N/A,N/A,N/A,N/A,N/A,N/A,N/A,N/A
/pubs/ldq/LDQ-43123H5.zip,0,N/A,N/A,N/A,N/A,N/A,N/A,N/A,N/A,N/A
/pubs/ldq/LDQ-43123H6.zip,0,N/A,N/A,N/A,N/A,N/A,N/A,N/A,N/A,N/A
/pubs/ldq/LDQ-43123H7.zip,0,N/A,N/A,N/A,N/A,N/A,N/A,N/A,N/A,N/A
/pubs/ldq/LDQ-43124A3.zip,0,N/A,N/A,N/A,N/A,N/A,N/A,N/A,N/A,N/A
/pubs/ldq/LDQ-44117H8.zip,0,N/A,N/A,N/A,N/A,N/A,N/A,N/A,N/A,N/A
/pubs/ldq/LDQ-44118F6.zip,0,N/A,N/A,N/A,N/A,N/A,N/A,N/A,N/A,N/A
/pubs/ldq/LDQ-44119C5.zip,0,N/A,N/A,N/A,N/A,N/A,N/A,N/A,N/A,N/A
/pubs/ldq/LDQ-44120B3.zip,0,N/A,N/A,N/A,N/A,N/A,N/A,N/A,N/A,N/A
/pubs/ldq/LDQ-44120E4.zip,0,N/A,N/A,N/A,N/A,N/A,N/A,N/A,N/A,N/A
/pubs/ldq/LDQ-44121C6.zip,0,N/A,N/A,N/A,N/A,N/A,N/A,N/A,N/A,N/A
/pubs/ldq/LDQ-44121F1.zip,0,N/A,N/A,N/A,N/A,N/A,N/A,N/A,N/A,N/A
/pubs/ldq/LDQ-44121F7.zip,0,N/A,N/A,N/A,N/A,N/A,N/A,N/A,N/A,N/A
/pubs/ldq/LDQ-44122B4.zip,0,N/A,N/A,N/A,N/A,N/A,N/A,N/A,N/A,N/A
/pubs/ldq/LDQ-44122C5.zip,0,N/A,N/A,N/A,N/A,N/A,N/A,N/A,N/A,N/A
/pubs/ldq/LDQ-44122E6.zip,0,N/A,N/A,N/A,N/A,N/A,N/A,N/A,N/A,N/A
/pubs/ldq/LDQ-44122E8.zip,0,N/A,N/A,N/A,N/A,N/A,N/A,N/A,N/A,N/A
/pubs/ldq/LDQ-44122G2.zip,0,N/A,N/A,N/A,N/A,N/A,N/A,N/A,N/A,N/A
/pubs/ldq/LDQ-44122G5.zip,0,N/A,N/A,N/A,N/A,N/A,N/A,N/A,N/A,N/A
/pubs/ldq/LDQ-44122H3.zip,0,N/A,N/A,N/A,N/A,N/A,N/A,N/A,N/A,N/A
/pubs/ldq/LDQ-44123B6.zip,0,N/A,N/A,N/A,N/A,N/A,N/A,N/A,N/A,N/A
/pubs/ldq/LDQ-44123F7.zip,0,N/A,N/A,N/A,N/A,N/A,N/A,N/A,N/A,N/A
/pubs/ldq/LDQ-44123G7.zip,0,N/A,N/A,N/A,N/A,N/A,N/A,N/A,N/A,N/A
/pubs/ldq/LDQ-44124A1.zip,0,N/A,N/A,N/A,N/A,N/A,N/A,N/A,N/A,N/A
/pubs/ldq/LDQ-45117B7.zip,0,N/A,N/A,N/A,N/A,N/A,N/A,N/A,N/A,N/A
/pubs/ldq/LDQ-45118E7.zip,0,N/A,N/A,N/A,N/A,N/A,N/A,N/A,N/A,N/A
/pubs/ldq/LDQ-45118F6.zip,0,N/A,N/A,N/A,N/A,N/A,N/A,N/A,N/A,N/A
/pubs/ldq/LDQ-45118H4.zip,0,N/A,N/A,N/A,N/A,N/A,N/A,N/A,N/A,N/A
/pubs/ldq/LDQ-45119H5.zip,0,N/A,N/A,N/A,N/A,N/A,N/A,N/A,N/A,N/A
/pubs/ldq/LDQ-45121D1.zip,0,N/A,N/A,N/A,N/A,N/A,N/A,N/A,N/A,N/A
/pubs/ldq/LDQ-45121E3.zip,0,N/A,N/A,N/A,N/A,N/A,N/A,N/A,N/A,N/A
/pubs/ldq/LDQ-45122A7.zip,0,N/A,N/A,N/A,N/A,N/A,N/A,N/A,N/A,N/A
/pubs/ldq/LDQ-45122D6.zip,0,N/A,N/A,N/A,N/A,N/A,N/A,N/A,N/A,N/A
/pubs/ldq/LDQ-45122E6.zip,0,N/A,N/A,N/A,N/A,N/A,N/A,N/A,N/A,N/A
/pubs/ldq/LDQ-45122F2.zip,0,N/A,N/A,N/A,N/A,N/A,N/A,N/A,N/A,N/A
/pubs/ldq/LDQ-45123C5.zip,0,N/A,N/A,N/A,N/A,N/A,N/A,N/A,N/A,N/A
/pubs/ldq/LDQ-45123D7.zip,0,N/A,N/A,N/A,N/A,N/A,N/A,N/A,N/A,N/A
/pubs/ldq/LDQ-45123E1.zip,0,N/A,N/A,N/A,N/A,N/A,N/A,N/A,N/A,N/A
/pubs/ldq/LDQ-45123F6.zip,0,N/A,N/A,N/A,N/A,N/A,N/A,N/A,N/A,N/A
/pubs/ldq/LDQ-45123G6.zip,0,N/A,N/A,N/A,N/A,N/A,N/A,N/A,N/A,N/A
/pubs/ldq/LDQ-45123G7.zip,0,N/A,N/A,N/A,N/A,N/A,N/A,N/A,N/A,N/A
/pubs/ldq/LDQ-45123G8.zip,0,N/A,N/A,N/A,N/A,N/A,N/A,N/A,N/A,N/A
/pubs/ldq/LDQ-45123H2.zip,0,N/A,N/A,N/A,N/A,N/A,N/A,N/A,N/A,N/A
/pubs/ldq/LDQ-46123B4.zip,0,N/A,N/A,N/A,N/A,N/A,N/A,N/A,N/A,N/A
/pubs/ldq/LDQ-46123C7.zip,0,N/A,N/A,N/A,N/A,N/A,N/A,N/A,N/A,N/A
LDQ_Status_newViewer/MapServer/0/query point,0,N/A,N/A,N/A,N/A,N/A,N/A,N/A,N/A,N/A
Total,0,N/A,N/A,N/A,N/A,N/A,N/A,N/A,N/A,N/A
