{
			"title":"Locust induced 64 Users Downloading",
			"description":"64 locust users are used with min_wait=1000, max_wait=2000. Only downloads are initiated. The download concurrency is built up slowly untill all users are downloading.",
			"perfMonFile":"../results/P13_PerfMon.csv",
			"locustFile":"../results/P13_LocustCustom.pkl",
			"outFile":"../results/P13_Locust_U64_Min1000_Max2000_DownloadsOnly.html",
			"pheight":400,
			"pwidth":400
}